%YAML 1.1
%TAG !u! tag:unity3d.com,2011:
--- !u!1 &3677277826774812898
GameObject:
  m_ObjectHideFlags: 0
  m_CorrespondingSourceObject: {fileID: 0}
  m_PrefabInstance: {fileID: 0}
  m_PrefabAsset: {fileID: 0}
  serializedVersion: 6
  m_Component:
  - component: {fileID: 4762388730083389912}
  - component: {fileID: 2866907931557728672}
  m_Layer: 0
  m_Name: eagle
  m_TagString: Untagged
  m_Icon: {fileID: 0}
  m_NavMeshLayer: 0
  m_StaticEditorFlags: 0
  m_IsActive: 1
--- !u!4 &4762388730083389912
Transform:
  m_ObjectHideFlags: 0
  m_CorrespondingSourceObject: {fileID: 0}
  m_PrefabInstance: {fileID: 0}
  m_PrefabAsset: {fileID: 0}
  m_GameObject: {fileID: 3677277826774812898}
  m_LocalRotation: {x: 0, y: 0, z: 0, w: 1}
  m_LocalPosition: {x: 0, y: 0, z: 0}
  m_LocalScale: {x: 1, y: 1, z: 1}
  m_Children: []
  m_Father: {fileID: 8587120428728150439}
  m_RootOrder: 0
  m_LocalEulerAnglesHint: {x: 0, y: 0, z: 0}
--- !u!212 &2866907931557728672
SpriteRenderer:
  m_ObjectHideFlags: 0
  m_CorrespondingSourceObject: {fileID: 0}
  m_PrefabInstance: {fileID: 0}
  m_PrefabAsset: {fileID: 0}
  m_GameObject: {fileID: 3677277826774812898}
  m_Enabled: 1
  m_CastShadows: 0
  m_ReceiveShadows: 0
  m_DynamicOccludee: 1
  m_MotionVectors: 1
  m_LightProbeUsage: 1
  m_ReflectionProbeUsage: 1
  m_RayTracingMode: 0
  m_RenderingLayerMask: 1
  m_RendererPriority: 0
  m_Materials:
  - {fileID: 10754, guid: 0000000000000000f000000000000000, type: 0}
  m_StaticBatchInfo:
    firstSubMesh: 0
    subMeshCount: 0
  m_StaticBatchRoot: {fileID: 0}
  m_ProbeAnchor: {fileID: 0}
  m_LightProbeVolumeOverride: {fileID: 0}
  m_ScaleInLightmap: 1
  m_ReceiveGI: 1
  m_PreserveUVs: 0
  m_IgnoreNormalsForChartDetection: 0
  m_ImportantGI: 0
  m_StitchLightmapSeams: 1
  m_SelectedEditorRenderState: 0
  m_MinimumChartSize: 4
  m_AutoUVMaxDistance: 0.5
  m_AutoUVMaxAngle: 89
  m_LightmapParameters: {fileID: 0}
  m_SortingLayerID: -576230133
  m_SortingLayer: 1
  m_SortingOrder: 5
  m_Sprite: {fileID: 21300000, guid: 916e19a621cc1be459c0d4f9b9850c06, type: 3}
  m_Color: {r: 1, g: 1, b: 1, a: 1}
  m_FlipX: 0
  m_FlipY: 0
  m_DrawMode: 0
  m_Size: {x: 2.12, y: 2.66}
  m_AdaptiveModeThreshold: 0.5
  m_SpriteTileMode: 0
  m_WasSpriteAssigned: 1
  m_MaskInteraction: 0
  m_SpriteSortPoint: 0
--- !u!1 &6792908011136580363
GameObject:
  m_ObjectHideFlags: 0
  m_CorrespondingSourceObject: {fileID: 0}
  m_PrefabInstance: {fileID: 0}
  m_PrefabAsset: {fileID: 0}
  serializedVersion: 6
  m_Component:
  - component: {fileID: 8587120428728150439}
  - component: {fileID: -4417423225291513498}
  - component: {fileID: 4456294684402886911}
  m_Layer: 0
  m_Name: eagleTrapped
  m_TagString: tagEnemyTrapped
  m_Icon: {fileID: 0}
  m_NavMeshLayer: 0
  m_StaticEditorFlags: 0
  m_IsActive: 1
--- !u!4 &8587120428728150439
Transform:
  m_ObjectHideFlags: 0
  m_CorrespondingSourceObject: {fileID: 0}
  m_PrefabInstance: {fileID: 0}
  m_PrefabAsset: {fileID: 0}
  m_GameObject: {fileID: 6792908011136580363}
  m_LocalRotation: {x: 0, y: 0, z: 0, w: 1}
  m_LocalPosition: {x: -0.7, y: -0.4, z: 0}
  m_LocalScale: {x: 1, y: 1, z: 1}
  m_Children:
  - {fileID: 4762388730083389912}
  m_Father: {fileID: 0}
  m_RootOrder: 0
  m_LocalEulerAnglesHint: {x: 0, y: 0, z: 0}
--- !u!210 &-4417423225291513498
SortingGroup:
  m_ObjectHideFlags: 0
  m_CorrespondingSourceObject: {fileID: 0}
  m_PrefabInstance: {fileID: 0}
  m_PrefabAsset: {fileID: 0}
  m_GameObject: {fileID: 6792908011136580363}
  m_Enabled: 1
  m_SortingLayerID: -576230133
  m_SortingLayer: 1
  m_SortingOrder: 3
--- !u!60 &4456294684402886911
PolygonCollider2D:
  m_ObjectHideFlags: 0
  m_CorrespondingSourceObject: {fileID: 0}
  m_PrefabInstance: {fileID: 0}
  m_PrefabAsset: {fileID: 0}
  m_GameObject: {fileID: 6792908011136580363}
  m_Enabled: 1
  m_Density: 1
  m_Material: {fileID: 0}
  m_IsTrigger: 0
  m_UsedByEffector: 0
  m_UsedByComposite: 0
  m_Offset: {x: 0, y: 0}
  m_SpriteTilingProperty:
    border: {x: 0, y: 0, z: 0, w: 0}
    pivot: {x: 0.5, y: 0.5}
    oldSize: {x: 2.12, y: 2.66}
    newSize: {x: 2.12, y: 2.66}
    adaptiveTilingThreshold: 0.5
    drawMode: 0
    adaptiveTiling: 0
  m_AutoTiling: 0
  m_Points:
    m_Paths:
    - - {x: 0.35999998, y: -1.18}
      - {x: 0.53, y: -1.3199999}
      - {x: 0.58, y: -1.3199999}
      - {x: 0.59999996, y: -1.27}
      - {x: 0.71, y: -1.3199999}
      - {x: 0.84999996, y: -1.31}
      - {x: 0.87, y: -1.24}
      - {x: 0.95, y: -1.25}
      - {x: 1.06, y: -1.24}
      - {x: 1.06, y: -1.02}
      - {x: 1.03, y: -0.97999996}
      - {x: 0.79999995, y: -0.74}
      - {x: 0.74, y: -0.65999997}
      - {x: 0.72999996, y: -0.48999998}
      - {x: 0.65999997, y: -0.22}
      - {x: 0.57, y: -0.01}
      - {x: 0.45999998, y: 0.19999999}
      - {x: 0.29, y: 0.42999998}
      - {x: 0.19, y: 0.56}
      - {x: 0.17, y: 0.61}
      - {x: 0.06, y: 0.7}
      - {x: -0.04, y: 1.01}
      - {x: -0.11, y: 1.17}
      - {x: -0.25, y: 1.3299999}
      - {x: -0.48999998, y: 1.3299999}
      - {x: -0.65, y: 1.26}
      - {x: -0.74, y: 1.15}
      - {x: -0.93, y: 1.06}
      - {x: -1.06, y: 0.98999995}
      - {x: -1.06, y: 0.68}
      - {x: -0.81, y: 0.71999997}
      - {x: -0.65, y: 0.68}
      - {x: -0.75, y: 0.44}
      - {x: -0.78, y: 0.28}
      - {x: -0.79999995, y: 0.02}
      - {x: -0.78, y: -0.12}
      - {x: -0.72999996, y: -0.26999998}
      - {x: -0.65999997, y: -0.42}
      - {x: -0.48999998, y: -0.58}
      - {x: -0.32999998, y: -0.65999997}
      - {x: -0.28, y: -0.78999996}
      - {x: -0.28, y: -0.90999997}
      - {x: -0.35999998, y: -0.84}
      - {x: -0.55, y: -0.88}
      - {x: -0.59999996, y: -0.97999996}
      - {x: -0.59, y: -1.01}
      - {x: -0.56, y: -1.02}
      - {x: -0.52, y: -1.15}
      - {x: -0.39999998, y: -1.23}
      - {x: -0.22999999, y: -1.0799999}
      - {x: -0.16, y: -1.15}
      - {x: -0.13, y: -1.16}
      - {x: -0.08, y: -1.18}
      - {x: -0.08, y: -1.26}
      - {x: -0.049999997, y: -1.31}
      - {x: -0.02, y: -1.3}
      - {x: 0.07, y: -1.18}
      - {x: 0.11, y: -1.3}
      - {x: 0.14, y: -1.3299999}
      - {x: 0.17, y: -1.3199999}
      - {x: 0.22999999, y: -1.23}
      - {x: 0.26, y: -1.1}
      - {x: 0.31, y: -1.1999999}
    - - {x: -0.099999994, y: -0.78}
      - {x: -0.089999996, y: -0.75}
      - {x: -0.099999994, y: -0.75}
      - {x: -0.04, y: -0.82}
    - - {x: 0.22999999, y: -0.90999997}
      - {x: 0.19999999, y: -0.83}
      - {x: 0.19, y: -0.84999996}
      - {x: 0.21, y: -0.9}
