%YAML 1.1
%TAG !u! tag:unity3d.com,2011:
--- !u!29 &1
OcclusionCullingSettings:
  m_ObjectHideFlags: 0
  serializedVersion: 2
  m_OcclusionBakeSettings:
    smallestOccluder: 5
    smallestHole: 0.25
    backfaceThreshold: 100
  m_SceneGUID: 00000000000000000000000000000000
  m_OcclusionCullingData: {fileID: 0}
--- !u!104 &2
RenderSettings:
  m_ObjectHideFlags: 0
  serializedVersion: 9
  m_Fog: 0
  m_FogColor: {r: 0.5, g: 0.5, b: 0.5, a: 1}
  m_FogMode: 3
  m_FogDensity: 0.01
  m_LinearFogStart: 0
  m_LinearFogEnd: 300
  m_AmbientSkyColor: {r: 0.212, g: 0.227, b: 0.259, a: 1}
  m_AmbientEquatorColor: {r: 0.114, g: 0.125, b: 0.133, a: 1}
  m_AmbientGroundColor: {r: 0.047, g: 0.043, b: 0.035, a: 1}
  m_AmbientIntensity: 1
  m_AmbientMode: 3
  m_SubtractiveShadowColor: {r: 0.42, g: 0.478, b: 0.627, a: 1}
  m_SkyboxMaterial: {fileID: 0}
  m_HaloStrength: 0.5
  m_FlareStrength: 1
  m_FlareFadeSpeed: 3
  m_HaloTexture: {fileID: 0}
  m_SpotCookie: {fileID: 10001, guid: 0000000000000000e000000000000000, type: 0}
  m_DefaultReflectionMode: 0
  m_DefaultReflectionResolution: 128
  m_ReflectionBounces: 1
  m_ReflectionIntensity: 1
  m_CustomReflection: {fileID: 0}
  m_Sun: {fileID: 0}
  m_IndirectSpecularColor: {r: 0, g: 0, b: 0, a: 1}
  m_UseRadianceAmbientProbe: 0
--- !u!157 &3
LightmapSettings:
  m_ObjectHideFlags: 0
  serializedVersion: 11
  m_GIWorkflowMode: 1
  m_GISettings:
    serializedVersion: 2
    m_BounceScale: 1
    m_IndirectOutputScale: 1
    m_AlbedoBoost: 1
    m_EnvironmentLightingMode: 0
    m_EnableBakedLightmaps: 0
    m_EnableRealtimeLightmaps: 0
  m_LightmapEditorSettings:
    serializedVersion: 12
    m_Resolution: 2
    m_BakeResolution: 40
    m_AtlasSize: 1024
    m_AO: 0
    m_AOMaxDistance: 1
    m_CompAOExponent: 1
    m_CompAOExponentDirect: 0
    m_ExtractAmbientOcclusion: 0
    m_Padding: 2
    m_LightmapParameters: {fileID: 0}
    m_LightmapsBakeMode: 1
    m_TextureCompression: 1
    m_FinalGather: 0
    m_FinalGatherFiltering: 1
    m_FinalGatherRayCount: 256
    m_ReflectionCompression: 2
    m_MixedBakeMode: 2
    m_BakeBackend: 1
    m_PVRSampling: 1
    m_PVRDirectSampleCount: 32
    m_PVRSampleCount: 512
    m_PVRBounces: 2
    m_PVREnvironmentSampleCount: 256
    m_PVREnvironmentReferencePointCount: 2048
    m_PVRFilteringMode: 1
    m_PVRDenoiserTypeDirect: 1
    m_PVRDenoiserTypeIndirect: 1
    m_PVRDenoiserTypeAO: 1
    m_PVRFilterTypeDirect: 0
    m_PVRFilterTypeIndirect: 0
    m_PVRFilterTypeAO: 0
    m_PVREnvironmentMIS: 1
    m_PVRCulling: 1
    m_PVRFilteringGaussRadiusDirect: 1
    m_PVRFilteringGaussRadiusIndirect: 5
    m_PVRFilteringGaussRadiusAO: 2
    m_PVRFilteringAtrousPositionSigmaDirect: 0.5
    m_PVRFilteringAtrousPositionSigmaIndirect: 2
    m_PVRFilteringAtrousPositionSigmaAO: 1
    m_ExportTrainingData: 0
    m_TrainingDataDestination: TrainingData
    m_LightProbeSampleCountMultiplier: 4
  m_LightingDataAsset: {fileID: 0}
  m_UseShadowmask: 1
--- !u!196 &4
NavMeshSettings:
  serializedVersion: 2
  m_ObjectHideFlags: 0
  m_BuildSettings:
    serializedVersion: 2
    agentTypeID: 0
    agentRadius: 0.5
    agentHeight: 2
    agentSlope: 45
    agentClimb: 0.4
    ledgeDropHeight: 0
    maxJumpAcrossDistance: 0
    minRegionArea: 2
    manualCellSize: 0
    cellSize: 0.16666667
    manualTileSize: 0
    tileSize: 256
    accuratePlacement: 0
    debug:
      m_Flags: 0
  m_NavMeshData: {fileID: 0}
--- !u!1001 &177860703
PrefabInstance:
  m_ObjectHideFlags: 0
  serializedVersion: 2
  m_Modification:
    m_TransformParent: {fileID: 0}
    m_Modifications:
    - target: {fileID: 189956097995258852, guid: 23ce15073f799cb4ebec409d2fa5bea8,
        type: 3}
      propertyPath: m_LocalPosition.x
      value: 4.52
      objectReference: {fileID: 0}
    - target: {fileID: 189956097995258852, guid: 23ce15073f799cb4ebec409d2fa5bea8,
        type: 3}
      propertyPath: m_LocalPosition.y
      value: -3.07
      objectReference: {fileID: 0}
    - target: {fileID: 189956097995258852, guid: 23ce15073f799cb4ebec409d2fa5bea8,
        type: 3}
      propertyPath: m_LocalPosition.z
      value: 0
      objectReference: {fileID: 0}
    - target: {fileID: 189956097995258852, guid: 23ce15073f799cb4ebec409d2fa5bea8,
        type: 3}
      propertyPath: m_LocalRotation.x
      value: 0
      objectReference: {fileID: 0}
    - target: {fileID: 189956097995258852, guid: 23ce15073f799cb4ebec409d2fa5bea8,
        type: 3}
      propertyPath: m_LocalRotation.y
      value: 0
      objectReference: {fileID: 0}
    - target: {fileID: 189956097995258852, guid: 23ce15073f799cb4ebec409d2fa5bea8,
        type: 3}
      propertyPath: m_LocalRotation.z
      value: 0
      objectReference: {fileID: 0}
    - target: {fileID: 189956097995258852, guid: 23ce15073f799cb4ebec409d2fa5bea8,
        type: 3}
      propertyPath: m_LocalRotation.w
      value: 1
      objectReference: {fileID: 0}
    - target: {fileID: 189956097995258852, guid: 23ce15073f799cb4ebec409d2fa5bea8,
        type: 3}
      propertyPath: m_RootOrder
      value: 9
      objectReference: {fileID: 0}
    - target: {fileID: 189956097995258852, guid: 23ce15073f799cb4ebec409d2fa5bea8,
        type: 3}
      propertyPath: m_LocalEulerAnglesHint.x
      value: 0
      objectReference: {fileID: 0}
    - target: {fileID: 189956097995258852, guid: 23ce15073f799cb4ebec409d2fa5bea8,
        type: 3}
      propertyPath: m_LocalEulerAnglesHint.y
      value: 0
      objectReference: {fileID: 0}
    - target: {fileID: 189956097995258852, guid: 23ce15073f799cb4ebec409d2fa5bea8,
        type: 3}
      propertyPath: m_LocalEulerAnglesHint.z
      value: 0
      objectReference: {fileID: 0}
    - target: {fileID: 3842954375828873700, guid: 23ce15073f799cb4ebec409d2fa5bea8,
        type: 3}
      propertyPath: m_Name
      value: sticksAndFlame (1)
      objectReference: {fileID: 0}
    - target: {fileID: 3842954375828873700, guid: 23ce15073f799cb4ebec409d2fa5bea8,
        type: 3}
      propertyPath: m_TagString
      value: tagFlame
      objectReference: {fileID: 0}
    - target: {fileID: 4398070592226444993, guid: 23ce15073f799cb4ebec409d2fa5bea8,
        type: 3}
      propertyPath: m_IsActive
      value: 1
      objectReference: {fileID: 0}
    - target: {fileID: 4708394954182892114, guid: 23ce15073f799cb4ebec409d2fa5bea8,
        type: 3}
      propertyPath: m_IsActive
      value: 1
      objectReference: {fileID: 0}
    - target: {fileID: 5561954348655023459, guid: 23ce15073f799cb4ebec409d2fa5bea8,
        type: 3}
      propertyPath: m_IsActive
      value: 1
      objectReference: {fileID: 0}
    m_RemovedComponents: []
  m_SourcePrefab: {fileID: 100100000, guid: 23ce15073f799cb4ebec409d2fa5bea8, type: 3}
--- !u!1 &267072586 stripped
GameObject:
  m_CorrespondingSourceObject: {fileID: 3842954375828873700, guid: 23ce15073f799cb4ebec409d2fa5bea8,
    type: 3}
  m_PrefabInstance: {fileID: 679436694}
  m_PrefabAsset: {fileID: 0}
--- !u!60 &267072587
PolygonCollider2D:
  m_ObjectHideFlags: 0
  m_CorrespondingSourceObject: {fileID: 0}
  m_PrefabInstance: {fileID: 0}
  m_PrefabAsset: {fileID: 0}
  m_GameObject: {fileID: 267072586}
  m_Enabled: 1
  m_Density: 1
  m_Material: {fileID: 0}
  m_IsTrigger: 0
  m_UsedByEffector: 0
  m_UsedByComposite: 0
  m_Offset: {x: 0, y: 0}
  m_SpriteTilingProperty:
    border: {x: 0, y: 0, z: 0, w: 0}
    pivot: {x: 0, y: 0}
    oldSize: {x: 0, y: 0}
    newSize: {x: 0, y: 0}
    adaptiveTilingThreshold: 0
    drawMode: 0
    adaptiveTiling: 0
  m_AutoTiling: 0
  m_Points:
    m_Paths:
    - - {x: 0.15633035, y: 2.2245884}
      - {x: -0.76867056, y: 1.1688341}
      - {x: -0.5356748, y: 0.780342}
      - {x: 0.66595054, y: 0.7803422}
      - {x: 0.82078195, y: 1.0125037}
--- !u!1001 &489052359
PrefabInstance:
  m_ObjectHideFlags: 0
  serializedVersion: 2
  m_Modification:
    m_TransformParent: {fileID: 0}
    m_Modifications:
    - target: {fileID: 4191727729088084860, guid: fb4c04e71a5b6104e9cb9535b73ac384,
        type: 3}
      propertyPath: m_MaskInteraction
      value: 0
      objectReference: {fileID: 0}
    - target: {fileID: 4191727729088084860, guid: fb4c04e71a5b6104e9cb9535b73ac384,
        type: 3}
      propertyPath: m_Color.a
      value: 1
      objectReference: {fileID: 0}
    - target: {fileID: 4191727729088084861, guid: fb4c04e71a5b6104e9cb9535b73ac384,
        type: 3}
      propertyPath: m_LocalPosition.x
      value: 5.53
      objectReference: {fileID: 0}
    - target: {fileID: 4191727729088084861, guid: fb4c04e71a5b6104e9cb9535b73ac384,
        type: 3}
      propertyPath: m_LocalPosition.y
      value: -1.5
      objectReference: {fileID: 0}
    - target: {fileID: 4191727729088084861, guid: fb4c04e71a5b6104e9cb9535b73ac384,
        type: 3}
      propertyPath: m_LocalPosition.z
      value: -1
      objectReference: {fileID: 0}
    - target: {fileID: 4191727729088084861, guid: fb4c04e71a5b6104e9cb9535b73ac384,
        type: 3}
      propertyPath: m_LocalRotation.x
      value: 0
      objectReference: {fileID: 0}
    - target: {fileID: 4191727729088084861, guid: fb4c04e71a5b6104e9cb9535b73ac384,
        type: 3}
      propertyPath: m_LocalRotation.y
      value: 0
      objectReference: {fileID: 0}
    - target: {fileID: 4191727729088084861, guid: fb4c04e71a5b6104e9cb9535b73ac384,
        type: 3}
      propertyPath: m_LocalRotation.z
      value: 0
      objectReference: {fileID: 0}
    - target: {fileID: 4191727729088084861, guid: fb4c04e71a5b6104e9cb9535b73ac384,
        type: 3}
      propertyPath: m_LocalRotation.w
      value: 1
      objectReference: {fileID: 0}
    - target: {fileID: 4191727729088084861, guid: fb4c04e71a5b6104e9cb9535b73ac384,
        type: 3}
      propertyPath: m_RootOrder
      value: 5
      objectReference: {fileID: 0}
    - target: {fileID: 4191727729088084861, guid: fb4c04e71a5b6104e9cb9535b73ac384,
        type: 3}
      propertyPath: m_LocalEulerAnglesHint.x
      value: 0
      objectReference: {fileID: 0}
    - target: {fileID: 4191727729088084861, guid: fb4c04e71a5b6104e9cb9535b73ac384,
        type: 3}
      propertyPath: m_LocalEulerAnglesHint.y
      value: 0
      objectReference: {fileID: 0}
    - target: {fileID: 4191727729088084861, guid: fb4c04e71a5b6104e9cb9535b73ac384,
        type: 3}
      propertyPath: m_LocalEulerAnglesHint.z
      value: 0
      objectReference: {fileID: 0}
    - target: {fileID: 4191727729088084861, guid: fb4c04e71a5b6104e9cb9535b73ac384,
        type: 3}
      propertyPath: m_LocalScale.x
      value: 0.6
      objectReference: {fileID: 0}
    - target: {fileID: 4191727729088084861, guid: fb4c04e71a5b6104e9cb9535b73ac384,
        type: 3}
      propertyPath: m_LocalScale.y
      value: 0.6
      objectReference: {fileID: 0}
    - target: {fileID: 4191727729088084863, guid: fb4c04e71a5b6104e9cb9535b73ac384,
        type: 3}
      propertyPath: m_Name
      value: Cheese
      objectReference: {fileID: 0}
    - target: {fileID: 4191727729088084863, guid: fb4c04e71a5b6104e9cb9535b73ac384,
        type: 3}
      propertyPath: m_IsActive
      value: 1
      objectReference: {fileID: 0}
    m_RemovedComponents: []
  m_SourcePrefab: {fileID: 100100000, guid: fb4c04e71a5b6104e9cb9535b73ac384, type: 3}
--- !u!1001 &520700290
PrefabInstance:
  m_ObjectHideFlags: 0
  serializedVersion: 2
  m_Modification:
    m_TransformParent: {fileID: 0}
    m_Modifications:
    - target: {fileID: 95054269606350164, guid: 58923b43bdae0ba4da7b1db95df9af90,
        type: 3}
      propertyPath: m_LocalPosition.x
      value: -0.23
      objectReference: {fileID: 0}
    - target: {fileID: 95054269606350164, guid: 58923b43bdae0ba4da7b1db95df9af90,
        type: 3}
      propertyPath: m_LocalPosition.y
      value: -4.83
      objectReference: {fileID: 0}
    - target: {fileID: 95054269606350164, guid: 58923b43bdae0ba4da7b1db95df9af90,
        type: 3}
      propertyPath: m_LocalPosition.z
      value: 0
      objectReference: {fileID: 0}
    - target: {fileID: 95054269606350164, guid: 58923b43bdae0ba4da7b1db95df9af90,
        type: 3}
      propertyPath: m_LocalRotation.x
      value: 0
      objectReference: {fileID: 0}
    - target: {fileID: 95054269606350164, guid: 58923b43bdae0ba4da7b1db95df9af90,
        type: 3}
      propertyPath: m_LocalRotation.y
      value: 0
      objectReference: {fileID: 0}
    - target: {fileID: 95054269606350164, guid: 58923b43bdae0ba4da7b1db95df9af90,
        type: 3}
      propertyPath: m_LocalRotation.z
      value: 0
      objectReference: {fileID: 0}
    - target: {fileID: 95054269606350164, guid: 58923b43bdae0ba4da7b1db95df9af90,
        type: 3}
      propertyPath: m_LocalRotation.w
      value: 1
      objectReference: {fileID: 0}
    - target: {fileID: 95054269606350164, guid: 58923b43bdae0ba4da7b1db95df9af90,
        type: 3}
      propertyPath: m_RootOrder
      value: 2
      objectReference: {fileID: 0}
    - target: {fileID: 95054269606350164, guid: 58923b43bdae0ba4da7b1db95df9af90,
        type: 3}
      propertyPath: m_LocalEulerAnglesHint.x
      value: 0
      objectReference: {fileID: 0}
    - target: {fileID: 95054269606350164, guid: 58923b43bdae0ba4da7b1db95df9af90,
        type: 3}
      propertyPath: m_LocalEulerAnglesHint.y
      value: 0
      objectReference: {fileID: 0}
    - target: {fileID: 95054269606350164, guid: 58923b43bdae0ba4da7b1db95df9af90,
        type: 3}
      propertyPath: m_LocalEulerAnglesHint.z
      value: 0
      objectReference: {fileID: 0}
    - target: {fileID: 95054269606350164, guid: 58923b43bdae0ba4da7b1db95df9af90,
        type: 3}
      propertyPath: m_LocalScale.y
      value: 1.5
      objectReference: {fileID: 0}
    - target: {fileID: 1070810231586084112, guid: 58923b43bdae0ba4da7b1db95df9af90,
        type: 3}
      propertyPath: m_Name
      value: GrassFull 2
      objectReference: {fileID: 0}
    - target: {fileID: 1070810231586084112, guid: 58923b43bdae0ba4da7b1db95df9af90,
        type: 3}
      propertyPath: m_IsActive
      value: 1
      objectReference: {fileID: 0}
    - target: {fileID: 5951916836073669846, guid: 58923b43bdae0ba4da7b1db95df9af90,
        type: 3}
      propertyPath: m_Points.m_Paths.Array.data[0].Array.data[86].y
      value: 1.2496237
      objectReference: {fileID: 0}
    - target: {fileID: 5951916836073669846, guid: 58923b43bdae0ba4da7b1db95df9af90,
        type: 3}
      propertyPath: m_Points.m_Paths.Array.data[0].Array.data[86].x
      value: -3.3642845
      objectReference: {fileID: 0}
    - target: {fileID: 5951916836073669846, guid: 58923b43bdae0ba4da7b1db95df9af90,
        type: 3}
      propertyPath: m_Points.m_Paths.Array.data[0].Array.data[85].y
      value: 1.6007686
      objectReference: {fileID: 0}
    - target: {fileID: 5951916836073669846, guid: 58923b43bdae0ba4da7b1db95df9af90,
        type: 3}
      propertyPath: m_Points.m_Paths.Array.data[0].Array.data[85].x
      value: -3.0070953
      objectReference: {fileID: 0}
    - target: {fileID: 5951916836073669846, guid: 58923b43bdae0ba4da7b1db95df9af90,
        type: 3}
      propertyPath: m_Points.m_Paths.Array.data[0].Array.data[84].y
      value: 1.6467923
      objectReference: {fileID: 0}
    - target: {fileID: 5951916836073669846, guid: 58923b43bdae0ba4da7b1db95df9af90,
        type: 3}
      propertyPath: m_Points.m_Paths.Array.data[0].Array.data[84].x
      value: -2.478534
      objectReference: {fileID: 0}
    - target: {fileID: 5951916836073669846, guid: 58923b43bdae0ba4da7b1db95df9af90,
        type: 3}
      propertyPath: m_Points.m_Paths.Array.data[0].Array.data[83].x
      value: -2.1169014
      objectReference: {fileID: 0}
    - target: {fileID: 5951916836073669846, guid: 58923b43bdae0ba4da7b1db95df9af90,
        type: 3}
      propertyPath: m_Points.m_Paths.Array.data[0].Array.data[83].y
      value: 1.6869352
      objectReference: {fileID: 0}
    - target: {fileID: 5951916836073669846, guid: 58923b43bdae0ba4da7b1db95df9af90,
        type: 3}
      propertyPath: m_Points.m_Paths.Array.data[0].Array.data[82].y
      value: 1.6967925
      objectReference: {fileID: 0}
    - target: {fileID: 5951916836073669846, guid: 58923b43bdae0ba4da7b1db95df9af90,
        type: 3}
      propertyPath: m_Points.m_Paths.Array.data[0].Array.data[82].x
      value: -1.964183
      objectReference: {fileID: 0}
    - target: {fileID: 5951916836073669846, guid: 58923b43bdae0ba4da7b1db95df9af90,
        type: 3}
      propertyPath: m_Points.m_Paths.Array.data[0].Array.data[81].y
      value: 1.7384156
      objectReference: {fileID: 0}
    - target: {fileID: 5951916836073669846, guid: 58923b43bdae0ba4da7b1db95df9af90,
        type: 3}
      propertyPath: m_Points.m_Paths.Array.data[0].Array.data[81].x
      value: -1.5632633
      objectReference: {fileID: 0}
    - target: {fileID: 5951916836073669846, guid: 58923b43bdae0ba4da7b1db95df9af90,
        type: 3}
      propertyPath: m_Points.m_Paths.Array.data[0].Array.data[80].x
      value: -1.0800811
      objectReference: {fileID: 0}
    - target: {fileID: 5951916836073669846, guid: 58923b43bdae0ba4da7b1db95df9af90,
        type: 3}
      propertyPath: m_Points.m_Paths.Array.data[0].Array.data[80].y
      value: 1.715311
      objectReference: {fileID: 0}
    - target: {fileID: 5951916836073669846, guid: 58923b43bdae0ba4da7b1db95df9af90,
        type: 3}
      propertyPath: m_Points.m_Paths.Array.data[0].Array.data[75].x
      value: -0.64429253
      objectReference: {fileID: 0}
    - target: {fileID: 5951916836073669846, guid: 58923b43bdae0ba4da7b1db95df9af90,
        type: 3}
      propertyPath: m_Points.m_Paths.Array.data[0].Array.data[75].y
      value: 1.7453115
      objectReference: {fileID: 0}
    - target: {fileID: 5951916836073669846, guid: 58923b43bdae0ba4da7b1db95df9af90,
        type: 3}
      propertyPath: m_Points.m_Paths.Array.data[0].Array.data[76].y
      value: 1.7272174
      objectReference: {fileID: 0}
    - target: {fileID: 5951916836073669846, guid: 58923b43bdae0ba4da7b1db95df9af90,
        type: 3}
      propertyPath: m_Points.m_Paths.Array.data[0].Array.data[76].x
      value: -0.954317
      objectReference: {fileID: 0}
    - target: {fileID: 5951916836073669846, guid: 58923b43bdae0ba4da7b1db95df9af90,
        type: 3}
      propertyPath: m_Points.m_Paths.Array.data[0].Array.data[77].x
      value: -0.9786015
      objectReference: {fileID: 0}
    - target: {fileID: 5951916836073669846, guid: 58923b43bdae0ba4da7b1db95df9af90,
        type: 3}
      propertyPath: m_Points.m_Paths.Array.data[0].Array.data[77].y
      value: 1.7247229
      objectReference: {fileID: 0}
    - target: {fileID: 5951916836073669846, guid: 58923b43bdae0ba4da7b1db95df9af90,
        type: 3}
      propertyPath: m_Points.m_Paths.Array.data[0].Array.data[78].x
      value: -1.2256807
      objectReference: {fileID: 0}
    - target: {fileID: 5951916836073669846, guid: 58923b43bdae0ba4da7b1db95df9af90,
        type: 3}
      propertyPath: m_Points.m_Paths.Array.data[0].Array.data[78].y
      value: 1.7392871
      objectReference: {fileID: 0}
    - target: {fileID: 5951916836073669846, guid: 58923b43bdae0ba4da7b1db95df9af90,
        type: 3}
      propertyPath: m_Points.m_Paths.Array.data[0].Array.data[79].x
      value: -1.6009601
      objectReference: {fileID: 0}
    - target: {fileID: 5951916836073669846, guid: 58923b43bdae0ba4da7b1db95df9af90,
        type: 3}
      propertyPath: m_Points.m_Paths.Array.data[0].Array.data[79].y
      value: 1.7367923
      objectReference: {fileID: 0}
    - target: {fileID: 5951916836073669846, guid: 58923b43bdae0ba4da7b1db95df9af90,
        type: 3}
      propertyPath: m_Points.m_Paths.Array.data[0].Array.data[74].y
      value: 1.7548649
      objectReference: {fileID: 0}
    - target: {fileID: 5951916836073669846, guid: 58923b43bdae0ba4da7b1db95df9af90,
        type: 3}
      propertyPath: m_Points.m_Paths.Array.data[0].Array.data[74].x
      value: -0.4541662
      objectReference: {fileID: 0}
    - target: {fileID: 5951916836073669846, guid: 58923b43bdae0ba4da7b1db95df9af90,
        type: 3}
      propertyPath: m_Points.m_Paths.Array.data[0].Array.data[72].y
      value: 1.7091238
      objectReference: {fileID: 0}
    - target: {fileID: 5951916836073669846, guid: 58923b43bdae0ba4da7b1db95df9af90,
        type: 3}
      propertyPath: m_Points.m_Paths.Array.data[0].Array.data[72].x
      value: 0.3842847
      objectReference: {fileID: 0}
    - target: {fileID: 5951916836073669846, guid: 58923b43bdae0ba4da7b1db95df9af90,
        type: 3}
      propertyPath: m_Points.m_Paths.Array.data[0].Array.data[73].y
      value: 1.8095926
      objectReference: {fileID: 0}
    - target: {fileID: 5951916836073669846, guid: 58923b43bdae0ba4da7b1db95df9af90,
        type: 3}
      propertyPath: m_Points.m_Paths.Array.data[0].Array.data[73].x
      value: 0.10287789
      objectReference: {fileID: 0}
    - target: {fileID: 5951916836073669846, guid: 58923b43bdae0ba4da7b1db95df9af90,
        type: 3}
      propertyPath: m_Points.m_Paths.Array.data[0].Array.data[71].y
      value: 1.6729363
      objectReference: {fileID: 0}
    - target: {fileID: 5951916836073669846, guid: 58923b43bdae0ba4da7b1db95df9af90,
        type: 3}
      propertyPath: m_Points.m_Paths.Array.data[0].Array.data[71].x
      value: 1.4143416
      objectReference: {fileID: 0}
    - target: {fileID: 5951916836073669846, guid: 58923b43bdae0ba4da7b1db95df9af90,
        type: 3}
      propertyPath: m_Points.m_Paths.Array.data[0].Array.data[70].y
      value: 1.7172174
      objectReference: {fileID: 0}
    - target: {fileID: 5951916836073669846, guid: 58923b43bdae0ba4da7b1db95df9af90,
        type: 3}
      propertyPath: m_Points.m_Paths.Array.data[0].Array.data[70].x
      value: 2.0242932
      objectReference: {fileID: 0}
    - target: {fileID: 5951916836073669846, guid: 58923b43bdae0ba4da7b1db95df9af90,
        type: 3}
      propertyPath: m_Points.m_Paths.Array.data[0].Array.data[69].x
      value: 2.606966
      objectReference: {fileID: 0}
    - target: {fileID: 5951916836073669846, guid: 58923b43bdae0ba4da7b1db95df9af90,
        type: 3}
      propertyPath: m_Points.m_Paths.Array.data[0].Array.data[69].y
      value: 1.7370148
      objectReference: {fileID: 0}
    - target: {fileID: 5951916836073669846, guid: 58923b43bdae0ba4da7b1db95df9af90,
        type: 3}
      propertyPath: m_Points.m_Paths.Array.data[0].Array.data[67].x
      value: 3.1144185
      objectReference: {fileID: 0}
    - target: {fileID: 5951916836073669846, guid: 58923b43bdae0ba4da7b1db95df9af90,
        type: 3}
      propertyPath: m_Points.m_Paths.Array.data[0].Array.data[67].y
      value: 1.6878861
      objectReference: {fileID: 0}
    - target: {fileID: 5951916836073669846, guid: 58923b43bdae0ba4da7b1db95df9af90,
        type: 3}
      propertyPath: m_Points.m_Paths.Array.data[0].Array.data[68].y
      value: 1.7707074
      objectReference: {fileID: 0}
    - target: {fileID: 5951916836073669846, guid: 58923b43bdae0ba4da7b1db95df9af90,
        type: 3}
      propertyPath: m_Points.m_Paths.Array.data[0].Array.data[68].x
      value: 2.7024717
      objectReference: {fileID: 0}
    - target: {fileID: 5951916836073669846, guid: 58923b43bdae0ba4da7b1db95df9af90,
        type: 3}
      propertyPath: m_Points.m_Paths.Array.data[0].Array.data[66].x
      value: 3.2989137
      objectReference: {fileID: 0}
    - target: {fileID: 5951916836073669846, guid: 58923b43bdae0ba4da7b1db95df9af90,
        type: 3}
      propertyPath: m_Points.m_Paths.Array.data[0].Array.data[66].y
      value: 1.7407074
      objectReference: {fileID: 0}
    - target: {fileID: 5951916836073669846, guid: 58923b43bdae0ba4da7b1db95df9af90,
        type: 3}
      propertyPath: m_Points.m_Paths.Array.data[0].Array.data[65].x
      value: 3.5504117
      objectReference: {fileID: 0}
    - target: {fileID: 5951916836073669846, guid: 58923b43bdae0ba4da7b1db95df9af90,
        type: 3}
      propertyPath: m_Points.m_Paths.Array.data[0].Array.data[65].y
      value: 2.1813288
      objectReference: {fileID: 0}
    - target: {fileID: 5951916836073669846, guid: 58923b43bdae0ba4da7b1db95df9af90,
        type: 3}
      propertyPath: m_Points.m_Paths.Array.data[0].Array.data[64].x
      value: 3.642921
      objectReference: {fileID: 0}
    - target: {fileID: 5951916836073669846, guid: 58923b43bdae0ba4da7b1db95df9af90,
        type: 3}
      propertyPath: m_Points.m_Paths.Array.data[0].Array.data[64].y
      value: 2.1076365
      objectReference: {fileID: 0}
    - target: {fileID: 5951916836073669846, guid: 58923b43bdae0ba4da7b1db95df9af90,
        type: 3}
      propertyPath: m_Points.m_Paths.Array.data[0].Array.data[63].x
      value: 3.810449
      objectReference: {fileID: 0}
    - target: {fileID: 5951916836073669846, guid: 58923b43bdae0ba4da7b1db95df9af90,
        type: 3}
      propertyPath: m_Points.m_Paths.Array.data[0].Array.data[63].y
      value: 2.34805
      objectReference: {fileID: 0}
    - target: {fileID: 5951916836073669846, guid: 58923b43bdae0ba4da7b1db95df9af90,
        type: 3}
      propertyPath: m_Points.m_Paths.Array.data[0].Array.data[62].x
      value: 3.9134457
      objectReference: {fileID: 0}
    - target: {fileID: 5951916836073669846, guid: 58923b43bdae0ba4da7b1db95df9af90,
        type: 3}
      propertyPath: m_Points.m_Paths.Array.data[0].Array.data[62].y
      value: 2.284357
      objectReference: {fileID: 0}
    m_RemovedComponents: []
  m_SourcePrefab: {fileID: 100100000, guid: 58923b43bdae0ba4da7b1db95df9af90, type: 3}
--- !u!1001 &587605890
PrefabInstance:
  m_ObjectHideFlags: 0
  serializedVersion: 2
  m_Modification:
    m_TransformParent: {fileID: 0}
    m_Modifications:
    - target: {fileID: 434575275442622905, guid: 53369fea727c5d24ab423b782274f41f,
        type: 3}
      propertyPath: noOfItems
      value: 1
      objectReference: {fileID: 0}
    - target: {fileID: 2626163213171047268, guid: 53369fea727c5d24ab423b782274f41f,
        type: 3}
      propertyPath: boxActive
      value: 0
      objectReference: {fileID: 0}
    - target: {fileID: 7966239787764111442, guid: 53369fea727c5d24ab423b782274f41f,
        type: 3}
      propertyPath: m_Name
      value: bottomPanel
      objectReference: {fileID: 0}
    - target: {fileID: 7966239787764111444, guid: 53369fea727c5d24ab423b782274f41f,
        type: 3}
      propertyPath: m_LocalPosition.x
      value: 0
      objectReference: {fileID: 0}
    - target: {fileID: 7966239787764111444, guid: 53369fea727c5d24ab423b782274f41f,
        type: 3}
      propertyPath: m_LocalPosition.y
      value: -4
      objectReference: {fileID: 0}
    - target: {fileID: 7966239787764111444, guid: 53369fea727c5d24ab423b782274f41f,
        type: 3}
      propertyPath: m_LocalPosition.z
      value: 0
      objectReference: {fileID: 0}
    - target: {fileID: 7966239787764111444, guid: 53369fea727c5d24ab423b782274f41f,
        type: 3}
      propertyPath: m_LocalRotation.x
      value: 0
      objectReference: {fileID: 0}
    - target: {fileID: 7966239787764111444, guid: 53369fea727c5d24ab423b782274f41f,
        type: 3}
      propertyPath: m_LocalRotation.y
      value: 0
      objectReference: {fileID: 0}
    - target: {fileID: 7966239787764111444, guid: 53369fea727c5d24ab423b782274f41f,
        type: 3}
      propertyPath: m_LocalRotation.z
      value: 0
      objectReference: {fileID: 0}
    - target: {fileID: 7966239787764111444, guid: 53369fea727c5d24ab423b782274f41f,
        type: 3}
      propertyPath: m_LocalRotation.w
      value: 1
      objectReference: {fileID: 0}
    - target: {fileID: 7966239787764111444, guid: 53369fea727c5d24ab423b782274f41f,
        type: 3}
      propertyPath: m_RootOrder
      value: 4
      objectReference: {fileID: 0}
    - target: {fileID: 7966239787764111444, guid: 53369fea727c5d24ab423b782274f41f,
        type: 3}
      propertyPath: m_LocalEulerAnglesHint.x
      value: 0
      objectReference: {fileID: 0}
    - target: {fileID: 7966239787764111444, guid: 53369fea727c5d24ab423b782274f41f,
        type: 3}
      propertyPath: m_LocalEulerAnglesHint.y
      value: 0
      objectReference: {fileID: 0}
    - target: {fileID: 7966239787764111444, guid: 53369fea727c5d24ab423b782274f41f,
        type: 3}
      propertyPath: m_LocalEulerAnglesHint.z
      value: 0
      objectReference: {fileID: 0}
    m_RemovedComponents: []
  m_SourcePrefab: {fileID: 100100000, guid: 53369fea727c5d24ab423b782274f41f, type: 3}
--- !u!1001 &672665437
PrefabInstance:
  m_ObjectHideFlags: 0
  serializedVersion: 2
  m_Modification:
    m_TransformParent: {fileID: 0}
    m_Modifications:
    - target: {fileID: 2900885522290898561, guid: f710f29562c2a09448124ac7b5a036be,
        type: 3}
      propertyPath: timeTarget
      value: 30
      objectReference: {fileID: 0}
    - target: {fileID: 8945960662992305941, guid: f710f29562c2a09448124ac7b5a036be,
        type: 3}
      propertyPath: m_LocalPosition.x
      value: 0
      objectReference: {fileID: 0}
    - target: {fileID: 8945960662992305941, guid: f710f29562c2a09448124ac7b5a036be,
        type: 3}
      propertyPath: m_LocalPosition.y
      value: 4
      objectReference: {fileID: 0}
    - target: {fileID: 8945960662992305941, guid: f710f29562c2a09448124ac7b5a036be,
        type: 3}
      propertyPath: m_LocalPosition.z
      value: 0
      objectReference: {fileID: 0}
    - target: {fileID: 8945960662992305941, guid: f710f29562c2a09448124ac7b5a036be,
        type: 3}
      propertyPath: m_LocalRotation.x
      value: 0
      objectReference: {fileID: 0}
    - target: {fileID: 8945960662992305941, guid: f710f29562c2a09448124ac7b5a036be,
        type: 3}
      propertyPath: m_LocalRotation.y
      value: 0
      objectReference: {fileID: 0}
    - target: {fileID: 8945960662992305941, guid: f710f29562c2a09448124ac7b5a036be,
        type: 3}
      propertyPath: m_LocalRotation.z
      value: 0
      objectReference: {fileID: 0}
    - target: {fileID: 8945960662992305941, guid: f710f29562c2a09448124ac7b5a036be,
        type: 3}
      propertyPath: m_LocalRotation.w
      value: 1
      objectReference: {fileID: 0}
    - target: {fileID: 8945960662992305941, guid: f710f29562c2a09448124ac7b5a036be,
        type: 3}
      propertyPath: m_RootOrder
      value: 3
      objectReference: {fileID: 0}
    - target: {fileID: 8945960662992305941, guid: f710f29562c2a09448124ac7b5a036be,
        type: 3}
      propertyPath: m_LocalEulerAnglesHint.x
      value: 0
      objectReference: {fileID: 0}
    - target: {fileID: 8945960662992305941, guid: f710f29562c2a09448124ac7b5a036be,
        type: 3}
      propertyPath: m_LocalEulerAnglesHint.y
      value: 0
      objectReference: {fileID: 0}
    - target: {fileID: 8945960662992305941, guid: f710f29562c2a09448124ac7b5a036be,
        type: 3}
      propertyPath: m_LocalEulerAnglesHint.z
      value: 0
      objectReference: {fileID: 0}
    - target: {fileID: 8945960662992306155, guid: f710f29562c2a09448124ac7b5a036be,
        type: 3}
      propertyPath: m_Name
      value: topPanel
      objectReference: {fileID: 0}
    m_RemovedComponents: []
  m_SourcePrefab: {fileID: 100100000, guid: f710f29562c2a09448124ac7b5a036be, type: 3}
--- !u!1001 &679436694
PrefabInstance:
  m_ObjectHideFlags: 0
  serializedVersion: 2
  m_Modification:
    m_TransformParent: {fileID: 0}
    m_Modifications:
    - target: {fileID: 189956097995258852, guid: 23ce15073f799cb4ebec409d2fa5bea8,
        type: 3}
      propertyPath: m_LocalPosition.x
      value: 2.81
      objectReference: {fileID: 0}
    - target: {fileID: 189956097995258852, guid: 23ce15073f799cb4ebec409d2fa5bea8,
        type: 3}
      propertyPath: m_LocalPosition.y
      value: -2.32
      objectReference: {fileID: 0}
    - target: {fileID: 189956097995258852, guid: 23ce15073f799cb4ebec409d2fa5bea8,
        type: 3}
      propertyPath: m_LocalPosition.z
      value: 0
      objectReference: {fileID: 0}
    - target: {fileID: 189956097995258852, guid: 23ce15073f799cb4ebec409d2fa5bea8,
        type: 3}
      propertyPath: m_LocalRotation.x
      value: 0
      objectReference: {fileID: 0}
    - target: {fileID: 189956097995258852, guid: 23ce15073f799cb4ebec409d2fa5bea8,
        type: 3}
      propertyPath: m_LocalRotation.y
      value: 0
      objectReference: {fileID: 0}
    - target: {fileID: 189956097995258852, guid: 23ce15073f799cb4ebec409d2fa5bea8,
        type: 3}
      propertyPath: m_LocalRotation.z
      value: 0
      objectReference: {fileID: 0}
    - target: {fileID: 189956097995258852, guid: 23ce15073f799cb4ebec409d2fa5bea8,
        type: 3}
      propertyPath: m_LocalRotation.w
      value: 1
      objectReference: {fileID: 0}
    - target: {fileID: 189956097995258852, guid: 23ce15073f799cb4ebec409d2fa5bea8,
        type: 3}
      propertyPath: m_RootOrder
      value: 8
      objectReference: {fileID: 0}
    - target: {fileID: 189956097995258852, guid: 23ce15073f799cb4ebec409d2fa5bea8,
        type: 3}
      propertyPath: m_LocalEulerAnglesHint.x
      value: 0
      objectReference: {fileID: 0}
    - target: {fileID: 189956097995258852, guid: 23ce15073f799cb4ebec409d2fa5bea8,
        type: 3}
      propertyPath: m_LocalEulerAnglesHint.y
      value: 0
      objectReference: {fileID: 0}
    - target: {fileID: 189956097995258852, guid: 23ce15073f799cb4ebec409d2fa5bea8,
        type: 3}
      propertyPath: m_LocalEulerAnglesHint.z
      value: 0
      objectReference: {fileID: 0}
    - target: {fileID: 3842954375828873700, guid: 23ce15073f799cb4ebec409d2fa5bea8,
        type: 3}
      propertyPath: m_Name
      value: sticksAndFlame
      objectReference: {fileID: 0}
    - target: {fileID: 3842954375828873700, guid: 23ce15073f799cb4ebec409d2fa5bea8,
        type: 3}
      propertyPath: m_TagString
      value: tagFlame
      objectReference: {fileID: 0}
    - target: {fileID: 4398070592226444993, guid: 23ce15073f799cb4ebec409d2fa5bea8,
        type: 3}
      propertyPath: m_IsActive
      value: 1
      objectReference: {fileID: 0}
    - target: {fileID: 4708394954182892114, guid: 23ce15073f799cb4ebec409d2fa5bea8,
        type: 3}
      propertyPath: m_IsActive
      value: 1
      objectReference: {fileID: 0}
    - target: {fileID: 5561954348655023459, guid: 23ce15073f799cb4ebec409d2fa5bea8,
        type: 3}
      propertyPath: m_IsActive
      value: 1
      objectReference: {fileID: 0}
    m_RemovedComponents: []
  m_SourcePrefab: {fileID: 100100000, guid: 23ce15073f799cb4ebec409d2fa5bea8, type: 3}
--- !u!1001 &1044795230
PrefabInstance:
  m_ObjectHideFlags: 0
  serializedVersion: 2
  m_Modification:
    m_TransformParent: {fileID: 0}
    m_Modifications:
    - target: {fileID: 4503537330458239944, guid: 17f48d9bbcfc4424b8bb7cf93f8b053b,
        type: 3}
      propertyPath: m_Name
      value: Background
      objectReference: {fileID: 0}
    - target: {fileID: 4503537330458239946, guid: 17f48d9bbcfc4424b8bb7cf93f8b053b,
        type: 3}
      propertyPath: m_LocalPosition.x
      value: 0
      objectReference: {fileID: 0}
    - target: {fileID: 4503537330458239946, guid: 17f48d9bbcfc4424b8bb7cf93f8b053b,
        type: 3}
      propertyPath: m_LocalPosition.y
      value: 0
      objectReference: {fileID: 0}
    - target: {fileID: 4503537330458239946, guid: 17f48d9bbcfc4424b8bb7cf93f8b053b,
        type: 3}
      propertyPath: m_LocalPosition.z
      value: 0
      objectReference: {fileID: 0}
    - target: {fileID: 4503537330458239946, guid: 17f48d9bbcfc4424b8bb7cf93f8b053b,
        type: 3}
      propertyPath: m_LocalRotation.x
      value: 0
      objectReference: {fileID: 0}
    - target: {fileID: 4503537330458239946, guid: 17f48d9bbcfc4424b8bb7cf93f8b053b,
        type: 3}
      propertyPath: m_LocalRotation.y
      value: 0
      objectReference: {fileID: 0}
    - target: {fileID: 4503537330458239946, guid: 17f48d9bbcfc4424b8bb7cf93f8b053b,
        type: 3}
      propertyPath: m_LocalRotation.z
      value: 0
      objectReference: {fileID: 0}
    - target: {fileID: 4503537330458239946, guid: 17f48d9bbcfc4424b8bb7cf93f8b053b,
        type: 3}
      propertyPath: m_LocalRotation.w
      value: 1
      objectReference: {fileID: 0}
    - target: {fileID: 4503537330458239946, guid: 17f48d9bbcfc4424b8bb7cf93f8b053b,
        type: 3}
      propertyPath: m_RootOrder
      value: 1
      objectReference: {fileID: 0}
    - target: {fileID: 4503537330458239946, guid: 17f48d9bbcfc4424b8bb7cf93f8b053b,
        type: 3}
      propertyPath: m_LocalEulerAnglesHint.x
      value: 0
      objectReference: {fileID: 0}
    - target: {fileID: 4503537330458239946, guid: 17f48d9bbcfc4424b8bb7cf93f8b053b,
        type: 3}
      propertyPath: m_LocalEulerAnglesHint.y
      value: 0
      objectReference: {fileID: 0}
    - target: {fileID: 4503537330458239946, guid: 17f48d9bbcfc4424b8bb7cf93f8b053b,
        type: 3}
      propertyPath: m_LocalEulerAnglesHint.z
      value: 0
      objectReference: {fileID: 0}
    m_RemovedComponents: []
  m_SourcePrefab: {fileID: 100100000, guid: 17f48d9bbcfc4424b8bb7cf93f8b053b, type: 3}
--- !u!1001 &1127923126
PrefabInstance:
  m_ObjectHideFlags: 0
  serializedVersion: 2
  m_Modification:
    m_TransformParent: {fileID: 0}
    m_Modifications:
    - target: {fileID: 487438334621887617, guid: 3dabb7ec417ca974e86c6b8fd61b7341,
        type: 3}
      propertyPath: m_LocalPosition.x
      value: -5.43
      objectReference: {fileID: 0}
    - target: {fileID: 487438334621887617, guid: 3dabb7ec417ca974e86c6b8fd61b7341,
        type: 3}
      propertyPath: m_LocalPosition.y
      value: -2.77
      objectReference: {fileID: 0}
    - target: {fileID: 487438334621887617, guid: 3dabb7ec417ca974e86c6b8fd61b7341,
        type: 3}
      propertyPath: m_LocalPosition.z
      value: -1
      objectReference: {fileID: 0}
    - target: {fileID: 487438334621887617, guid: 3dabb7ec417ca974e86c6b8fd61b7341,
        type: 3}
      propertyPath: m_LocalRotation.x
      value: 0
      objectReference: {fileID: 0}
    - target: {fileID: 487438334621887617, guid: 3dabb7ec417ca974e86c6b8fd61b7341,
        type: 3}
      propertyPath: m_LocalRotation.y
      value: 0
      objectReference: {fileID: 0}
    - target: {fileID: 487438334621887617, guid: 3dabb7ec417ca974e86c6b8fd61b7341,
        type: 3}
      propertyPath: m_LocalRotation.z
      value: 0
      objectReference: {fileID: 0}
    - target: {fileID: 487438334621887617, guid: 3dabb7ec417ca974e86c6b8fd61b7341,
        type: 3}
      propertyPath: m_LocalRotation.w
      value: 1
      objectReference: {fileID: 0}
    - target: {fileID: 487438334621887617, guid: 3dabb7ec417ca974e86c6b8fd61b7341,
        type: 3}
      propertyPath: m_RootOrder
      value: 7
      objectReference: {fileID: 0}
    - target: {fileID: 487438334621887617, guid: 3dabb7ec417ca974e86c6b8fd61b7341,
        type: 3}
      propertyPath: m_LocalEulerAnglesHint.x
      value: 0
      objectReference: {fileID: 0}
    - target: {fileID: 487438334621887617, guid: 3dabb7ec417ca974e86c6b8fd61b7341,
        type: 3}
      propertyPath: m_LocalEulerAnglesHint.y
      value: 0
      objectReference: {fileID: 0}
    - target: {fileID: 487438334621887617, guid: 3dabb7ec417ca974e86c6b8fd61b7341,
        type: 3}
      propertyPath: m_LocalEulerAnglesHint.z
      value: 0
      objectReference: {fileID: 0}
    - target: {fileID: 1175464863632537568, guid: 3dabb7ec417ca974e86c6b8fd61b7341,
        type: 3}
      propertyPath: m_Name
      value: mouseSleeps
      objectReference: {fileID: 0}
    m_RemovedComponents: []
  m_SourcePrefab: {fileID: 100100000, guid: 3dabb7ec417ca974e86c6b8fd61b7341, type: 3}
--- !u!1 &1131479543 stripped
GameObject:
  m_CorrespondingSourceObject: {fileID: 3842954375828873700, guid: 23ce15073f799cb4ebec409d2fa5bea8,
    type: 3}
  m_PrefabInstance: {fileID: 177860703}
  m_PrefabAsset: {fileID: 0}
--- !u!60 &1131479544
PolygonCollider2D:
  m_ObjectHideFlags: 0
  m_CorrespondingSourceObject: {fileID: 0}
  m_PrefabInstance: {fileID: 0}
  m_PrefabAsset: {fileID: 0}
  m_GameObject: {fileID: 1131479543}
  m_Enabled: 1
  m_Density: 1
  m_Material: {fileID: 0}
  m_IsTrigger: 0
  m_UsedByEffector: 0
  m_UsedByComposite: 0
  m_Offset: {x: 0, y: 0}
  m_SpriteTilingProperty:
    border: {x: 0, y: 0, z: 0, w: 0}
    pivot: {x: 0, y: 0}
    oldSize: {x: 0, y: 0}
    newSize: {x: 0, y: 0}
    adaptiveTilingThreshold: 0
    drawMode: 0
    adaptiveTiling: 0
  m_AutoTiling: 0
  m_Points:
    m_Paths:
    - - {x: 0.15633035, y: 2.2245884}
      - {x: -0.76867056, y: 1.1688341}
      - {x: -0.5356748, y: 0.780342}
      - {x: 0.66595054, y: 0.7803422}
      - {x: 0.82078195, y: 1.0125037}
--- !u!1 &1486927900 stripped
GameObject:
  m_CorrespondingSourceObject: {fileID: 4191727729088084863, guid: fb4c04e71a5b6104e9cb9535b73ac384,
    type: 3}
  m_PrefabInstance: {fileID: 489052359}
  m_PrefabAsset: {fileID: 0}
--- !u!114 &1486927904
MonoBehaviour:
  m_ObjectHideFlags: 0
  m_CorrespondingSourceObject: {fileID: 0}
  m_PrefabInstance: {fileID: 0}
  m_PrefabAsset: {fileID: 0}
  m_GameObject: {fileID: 1486927900}
  m_Enabled: 1
  m_EditorHideFlags: 0
  m_Script: {fileID: 11500000, guid: 38d927c264b89124f8a46283e442b35a, type: 3}
  m_Name: 
  m_EditorClassIdentifier: 
--- !u!1001 &1903517841
PrefabInstance:
  m_ObjectHideFlags: 0
  serializedVersion: 2
  m_Modification:
    m_TransformParent: {fileID: 0}
    m_Modifications:
    - target: {fileID: -2543572514829428232, guid: 11bbc070a160dc94ca0db303301ab847,
        type: 3}
      propertyPath: tagWoolHere
      value: 0
      objectReference: {fileID: 0}
    - target: {fileID: -2543572514829428232, guid: 11bbc070a160dc94ca0db303301ab847,
        type: 3}
      propertyPath: tagAxeHere
      value: 0
      objectReference: {fileID: 0}
    - target: {fileID: -2543572514829428232, guid: 11bbc070a160dc94ca0db303301ab847,
        type: 3}
      propertyPath: tagSticksHere
      value: 0
      objectReference: {fileID: 0}
    - target: {fileID: -2543572514829428232, guid: 11bbc070a160dc94ca0db303301ab847,
        type: 3}
      propertyPath: tagJumperHere
      value: 0
      objectReference: {fileID: 0}
    - target: {fileID: -2543572514829428232, guid: 11bbc070a160dc94ca0db303301ab847,
        type: 3}
      propertyPath: tagFenceHere
      value: 0
      objectReference: {fileID: 0}
    - target: {fileID: -2543572514829428232, guid: 11bbc070a160dc94ca0db303301ab847,
        type: 3}
      propertyPath: tagStickHere
      value: 0
      objectReference: {fileID: 0}
    - target: {fileID: -2543572514829428232, guid: 11bbc070a160dc94ca0db303301ab847,
        type: 3}
      propertyPath: tagMatchHere
      value: 0
      objectReference: {fileID: 0}
    - target: {fileID: -2543572514829428232, guid: 11bbc070a160dc94ca0db303301ab847,
        type: 3}
      propertyPath: tagCageHere
      value: 0
      objectReference: {fileID: 0}
    - target: {fileID: -2543572514829428232, guid: 11bbc070a160dc94ca0db303301ab847,
        type: 3}
      propertyPath: tagBucketHere
      value: 1
      objectReference: {fileID: 0}
    - target: {fileID: 7152363240828079128, guid: 11bbc070a160dc94ca0db303301ab847,
        type: 3}
      propertyPath: m_Name
      value: putItemHere1
      objectReference: {fileID: 0}
    - target: {fileID: 7152363240828079128, guid: 11bbc070a160dc94ca0db303301ab847,
        type: 3}
      propertyPath: m_TagString
      value: tagPlaceToPut
      objectReference: {fileID: 0}
    - target: {fileID: 8339012770716016212, guid: 11bbc070a160dc94ca0db303301ab847,
        type: 3}
      propertyPath: m_Size.y
      value: 1.54
      objectReference: {fileID: 0}
    - target: {fileID: 8339012770716016212, guid: 11bbc070a160dc94ca0db303301ab847,
        type: 3}
      propertyPath: m_Size.x
      value: 2.04
      objectReference: {fileID: 0}
    - target: {fileID: 8339012770716016212, guid: 11bbc070a160dc94ca0db303301ab847,
        type: 3}
      propertyPath: m_IsTrigger
      value: 1
      objectReference: {fileID: 0}
    - target: {fileID: 8981828696667485791, guid: 11bbc070a160dc94ca0db303301ab847,
        type: 3}
      propertyPath: m_LocalPosition.x
      value: -2.21
      objectReference: {fileID: 0}
    - target: {fileID: 8981828696667485791, guid: 11bbc070a160dc94ca0db303301ab847,
        type: 3}
      propertyPath: m_LocalPosition.y
      value: -0.11
      objectReference: {fileID: 0}
    - target: {fileID: 8981828696667485791, guid: 11bbc070a160dc94ca0db303301ab847,
        type: 3}
      propertyPath: m_LocalPosition.z
      value: -1.6152344
      objectReference: {fileID: 0}
    - target: {fileID: 8981828696667485791, guid: 11bbc070a160dc94ca0db303301ab847,
        type: 3}
      propertyPath: m_LocalRotation.x
      value: 0
      objectReference: {fileID: 0}
    - target: {fileID: 8981828696667485791, guid: 11bbc070a160dc94ca0db303301ab847,
        type: 3}
      propertyPath: m_LocalRotation.y
      value: 0
      objectReference: {fileID: 0}
    - target: {fileID: 8981828696667485791, guid: 11bbc070a160dc94ca0db303301ab847,
        type: 3}
      propertyPath: m_LocalRotation.z
      value: 0
      objectReference: {fileID: 0}
    - target: {fileID: 8981828696667485791, guid: 11bbc070a160dc94ca0db303301ab847,
        type: 3}
      propertyPath: m_LocalRotation.w
      value: 1
      objectReference: {fileID: 0}
    - target: {fileID: 8981828696667485791, guid: 11bbc070a160dc94ca0db303301ab847,
        type: 3}
      propertyPath: m_RootOrder
      value: 6
      objectReference: {fileID: 0}
    - target: {fileID: 8981828696667485791, guid: 11bbc070a160dc94ca0db303301ab847,
        type: 3}
      propertyPath: m_LocalEulerAnglesHint.x
      value: 0
      objectReference: {fileID: 0}
    - target: {fileID: 8981828696667485791, guid: 11bbc070a160dc94ca0db303301ab847,
        type: 3}
      propertyPath: m_LocalEulerAnglesHint.y
      value: 0
      objectReference: {fileID: 0}
    - target: {fileID: 8981828696667485791, guid: 11bbc070a160dc94ca0db303301ab847,
        type: 3}
      propertyPath: m_LocalEulerAnglesHint.z
      value: 0
      objectReference: {fileID: 0}
    m_RemovedComponents: []
  m_SourcePrefab: {fileID: 100100000, guid: 11bbc070a160dc94ca0db303301ab847, type: 3}
--- !u!1001 &2069026117
PrefabInstance:
  m_ObjectHideFlags: 0
  serializedVersion: 2
  m_Modification:
    m_TransformParent: {fileID: 0}
    m_Modifications:
    - target: {fileID: 6774632706815460487, guid: 44fe3f75b6cd36e4e8467e69d9e4677d,
        type: 3}
      propertyPath: m_LocalPosition.x
      value: 0
      objectReference: {fileID: 0}
    - target: {fileID: 6774632706815460487, guid: 44fe3f75b6cd36e4e8467e69d9e4677d,
        type: 3}
      propertyPath: m_LocalPosition.y
      value: 0
      objectReference: {fileID: 0}
    - target: {fileID: 6774632706815460487, guid: 44fe3f75b6cd36e4e8467e69d9e4677d,
        type: 3}
      propertyPath: m_LocalPosition.z
      value: -10
      objectReference: {fileID: 0}
    - target: {fileID: 6774632706815460487, guid: 44fe3f75b6cd36e4e8467e69d9e4677d,
        type: 3}
      propertyPath: m_LocalRotation.x
      value: 0
      objectReference: {fileID: 0}
    - target: {fileID: 6774632706815460487, guid: 44fe3f75b6cd36e4e8467e69d9e4677d,
        type: 3}
      propertyPath: m_LocalRotation.y
      value: 0
      objectReference: {fileID: 0}
    - target: {fileID: 6774632706815460487, guid: 44fe3f75b6cd36e4e8467e69d9e4677d,
        type: 3}
      propertyPath: m_LocalRotation.z
      value: 0
      objectReference: {fileID: 0}
    - target: {fileID: 6774632706815460487, guid: 44fe3f75b6cd36e4e8467e69d9e4677d,
        type: 3}
      propertyPath: m_LocalRotation.w
      value: 1
      objectReference: {fileID: 0}
    - target: {fileID: 6774632706815460487, guid: 44fe3f75b6cd36e4e8467e69d9e4677d,
        type: 3}
      propertyPath: m_RootOrder
      value: 0
      objectReference: {fileID: 0}
    - target: {fileID: 6774632706815460487, guid: 44fe3f75b6cd36e4e8467e69d9e4677d,
        type: 3}
      propertyPath: m_LocalEulerAnglesHint.x
      value: 0
      objectReference: {fileID: 0}
    - target: {fileID: 6774632706815460487, guid: 44fe3f75b6cd36e4e8467e69d9e4677d,
        type: 3}
      propertyPath: m_LocalEulerAnglesHint.y
      value: 0
      objectReference: {fileID: 0}
    - target: {fileID: 6774632706815460487, guid: 44fe3f75b6cd36e4e8467e69d9e4677d,
        type: 3}
      propertyPath: m_LocalEulerAnglesHint.z
      value: 0
      objectReference: {fileID: 0}
    - target: {fileID: 6774632706815460490, guid: 44fe3f75b6cd36e4e8467e69d9e4677d,
        type: 3}
      propertyPath: m_Name
      value: Main Camera
      objectReference: {fileID: 0}
    m_RemovedComponents: []
  m_SourcePrefab: {fileID: 100100000, guid: 44fe3f75b6cd36e4e8467e69d9e4677d, type: 3}
--- !u!1001 &8437634482683257956
PrefabInstance:
  m_ObjectHideFlags: 0
  serializedVersion: 2
  m_Modification:
    m_TransformParent: {fileID: 0}
    m_Modifications:
    - target: {fileID: 1124206159797895771, guid: 7bc5d0762dc3b5641823ea3d910ae8d8,
        type: 3}
      propertyPath: m_LocalPosition.x
      value: -1.56
      objectReference: {fileID: 0}
    - target: {fileID: 1124206159797895771, guid: 7bc5d0762dc3b5641823ea3d910ae8d8,
        type: 3}
      propertyPath: m_LocalPosition.y
      value: -2.26
      objectReference: {fileID: 0}
    - target: {fileID: 1124206159797895771, guid: 7bc5d0762dc3b5641823ea3d910ae8d8,
        type: 3}
      propertyPath: m_LocalPosition.z
      value: 0
      objectReference: {fileID: 0}
    - target: {fileID: 1124206159797895771, guid: 7bc5d0762dc3b5641823ea3d910ae8d8,
        type: 3}
      propertyPath: m_LocalRotation.x
      value: 0
      objectReference: {fileID: 0}
    - target: {fileID: 1124206159797895771, guid: 7bc5d0762dc3b5641823ea3d910ae8d8,
        type: 3}
      propertyPath: m_LocalRotation.y
      value: 0
      objectReference: {fileID: 0}
    - target: {fileID: 1124206159797895771, guid: 7bc5d0762dc3b5641823ea3d910ae8d8,
        type: 3}
      propertyPath: m_LocalRotation.z
      value: 0
      objectReference: {fileID: 0}
    - target: {fileID: 1124206159797895771, guid: 7bc5d0762dc3b5641823ea3d910ae8d8,
        type: 3}
      propertyPath: m_LocalRotation.w
      value: 1
      objectReference: {fileID: 0}
    - target: {fileID: 1124206159797895771, guid: 7bc5d0762dc3b5641823ea3d910ae8d8,
        type: 3}
      propertyPath: m_RootOrder
      value: 10
      objectReference: {fileID: 0}
    - target: {fileID: 1124206159797895771, guid: 7bc5d0762dc3b5641823ea3d910ae8d8,
        type: 3}
      propertyPath: m_LocalEulerAnglesHint.x
      value: 0
      objectReference: {fileID: 0}
    - target: {fileID: 1124206159797895771, guid: 7bc5d0762dc3b5641823ea3d910ae8d8,
        type: 3}
      propertyPath: m_LocalEulerAnglesHint.y
      value: 0
      objectReference: {fileID: 0}
    - target: {fileID: 1124206159797895771, guid: 7bc5d0762dc3b5641823ea3d910ae8d8,
        type: 3}
      propertyPath: m_LocalEulerAnglesHint.z
      value: 0
      objectReference: {fileID: 0}
    - target: {fileID: 4553689990178465252, guid: 7bc5d0762dc3b5641823ea3d910ae8d8,
        type: 3}
      propertyPath: m_Name
      value: well
      objectReference: {fileID: 0}
    m_RemovedComponents: []
  m_SourcePrefab: {fileID: 100100000, guid: 7bc5d0762dc3b5641823ea3d910ae8d8, type: 3}
