%YAML 1.1
%TAG !u! tag:unity3d.com,2011:
--- !u!29 &1
OcclusionCullingSettings:
  m_ObjectHideFlags: 0
  serializedVersion: 2
  m_OcclusionBakeSettings:
    smallestOccluder: 5
    smallestHole: 0.25
    backfaceThreshold: 100
  m_SceneGUID: 00000000000000000000000000000000
  m_OcclusionCullingData: {fileID: 0}
--- !u!104 &2
RenderSettings:
  m_ObjectHideFlags: 0
  serializedVersion: 9
  m_Fog: 0
  m_FogColor: {r: 0.5, g: 0.5, b: 0.5, a: 1}
  m_FogMode: 3
  m_FogDensity: 0.01
  m_LinearFogStart: 0
  m_LinearFogEnd: 300
  m_AmbientSkyColor: {r: 0.212, g: 0.227, b: 0.259, a: 1}
  m_AmbientEquatorColor: {r: 0.114, g: 0.125, b: 0.133, a: 1}
  m_AmbientGroundColor: {r: 0.047, g: 0.043, b: 0.035, a: 1}
  m_AmbientIntensity: 1
  m_AmbientMode: 3
  m_SubtractiveShadowColor: {r: 0.42, g: 0.478, b: 0.627, a: 1}
  m_SkyboxMaterial: {fileID: 0}
  m_HaloStrength: 0.5
  m_FlareStrength: 1
  m_FlareFadeSpeed: 3
  m_HaloTexture: {fileID: 0}
  m_SpotCookie: {fileID: 10001, guid: 0000000000000000e000000000000000, type: 0}
  m_DefaultReflectionMode: 0
  m_DefaultReflectionResolution: 128
  m_ReflectionBounces: 1
  m_ReflectionIntensity: 1
  m_CustomReflection: {fileID: 0}
  m_Sun: {fileID: 0}
  m_IndirectSpecularColor: {r: 0, g: 0, b: 0, a: 1}
  m_UseRadianceAmbientProbe: 0
--- !u!157 &3
LightmapSettings:
  m_ObjectHideFlags: 0
  serializedVersion: 11
  m_GIWorkflowMode: 1
  m_GISettings:
    serializedVersion: 2
    m_BounceScale: 1
    m_IndirectOutputScale: 1
    m_AlbedoBoost: 1
    m_EnvironmentLightingMode: 0
    m_EnableBakedLightmaps: 0
    m_EnableRealtimeLightmaps: 0
  m_LightmapEditorSettings:
    serializedVersion: 12
    m_Resolution: 2
    m_BakeResolution: 40
    m_AtlasSize: 1024
    m_AO: 0
    m_AOMaxDistance: 1
    m_CompAOExponent: 1
    m_CompAOExponentDirect: 0
    m_ExtractAmbientOcclusion: 0
    m_Padding: 2
    m_LightmapParameters: {fileID: 0}
    m_LightmapsBakeMode: 1
    m_TextureCompression: 1
    m_FinalGather: 0
    m_FinalGatherFiltering: 1
    m_FinalGatherRayCount: 256
    m_ReflectionCompression: 2
    m_MixedBakeMode: 2
    m_BakeBackend: 1
    m_PVRSampling: 1
    m_PVRDirectSampleCount: 32
    m_PVRSampleCount: 512
    m_PVRBounces: 2
    m_PVREnvironmentSampleCount: 256
    m_PVREnvironmentReferencePointCount: 2048
    m_PVRFilteringMode: 1
    m_PVRDenoiserTypeDirect: 1
    m_PVRDenoiserTypeIndirect: 1
    m_PVRDenoiserTypeAO: 1
    m_PVRFilterTypeDirect: 0
    m_PVRFilterTypeIndirect: 0
    m_PVRFilterTypeAO: 0
    m_PVREnvironmentMIS: 1
    m_PVRCulling: 1
    m_PVRFilteringGaussRadiusDirect: 1
    m_PVRFilteringGaussRadiusIndirect: 5
    m_PVRFilteringGaussRadiusAO: 2
    m_PVRFilteringAtrousPositionSigmaDirect: 0.5
    m_PVRFilteringAtrousPositionSigmaIndirect: 2
    m_PVRFilteringAtrousPositionSigmaAO: 1
    m_ExportTrainingData: 0
    m_TrainingDataDestination: TrainingData
    m_LightProbeSampleCountMultiplier: 4
  m_LightingDataAsset: {fileID: 0}
  m_UseShadowmask: 1
--- !u!196 &4
NavMeshSettings:
  serializedVersion: 2
  m_ObjectHideFlags: 0
  m_BuildSettings:
    serializedVersion: 2
    agentTypeID: 0
    agentRadius: 0.5
    agentHeight: 2
    agentSlope: 45
    agentClimb: 0.4
    ledgeDropHeight: 0
    maxJumpAcrossDistance: 0
    minRegionArea: 2
    manualCellSize: 0
    cellSize: 0.16666667
    manualTileSize: 0
    tileSize: 256
    accuratePlacement: 0
    debug:
      m_Flags: 0
  m_NavMeshData: {fileID: 0}
--- !u!1001 &378191506
PrefabInstance:
  m_ObjectHideFlags: 0
  serializedVersion: 2
  m_Modification:
    m_TransformParent: {fileID: 0}
    m_Modifications:
    - target: {fileID: 95054269606350164, guid: 58923b43bdae0ba4da7b1db95df9af90,
        type: 3}
      propertyPath: m_LocalPosition.x
      value: 0.23
      objectReference: {fileID: 0}
    - target: {fileID: 95054269606350164, guid: 58923b43bdae0ba4da7b1db95df9af90,
        type: 3}
      propertyPath: m_LocalPosition.y
      value: -4.47
      objectReference: {fileID: 0}
    - target: {fileID: 95054269606350164, guid: 58923b43bdae0ba4da7b1db95df9af90,
        type: 3}
      propertyPath: m_LocalPosition.z
      value: 0
      objectReference: {fileID: 0}
    - target: {fileID: 95054269606350164, guid: 58923b43bdae0ba4da7b1db95df9af90,
        type: 3}
      propertyPath: m_LocalRotation.x
      value: 0
      objectReference: {fileID: 0}
    - target: {fileID: 95054269606350164, guid: 58923b43bdae0ba4da7b1db95df9af90,
        type: 3}
      propertyPath: m_LocalRotation.y
      value: 0
      objectReference: {fileID: 0}
    - target: {fileID: 95054269606350164, guid: 58923b43bdae0ba4da7b1db95df9af90,
        type: 3}
      propertyPath: m_LocalRotation.z
      value: 0
      objectReference: {fileID: 0}
    - target: {fileID: 95054269606350164, guid: 58923b43bdae0ba4da7b1db95df9af90,
        type: 3}
      propertyPath: m_LocalRotation.w
      value: 1
      objectReference: {fileID: 0}
    - target: {fileID: 95054269606350164, guid: 58923b43bdae0ba4da7b1db95df9af90,
        type: 3}
      propertyPath: m_RootOrder
      value: 7
      objectReference: {fileID: 0}
    - target: {fileID: 95054269606350164, guid: 58923b43bdae0ba4da7b1db95df9af90,
        type: 3}
      propertyPath: m_LocalEulerAnglesHint.x
      value: 0
      objectReference: {fileID: 0}
    - target: {fileID: 95054269606350164, guid: 58923b43bdae0ba4da7b1db95df9af90,
        type: 3}
      propertyPath: m_LocalEulerAnglesHint.y
      value: 0
      objectReference: {fileID: 0}
    - target: {fileID: 95054269606350164, guid: 58923b43bdae0ba4da7b1db95df9af90,
        type: 3}
      propertyPath: m_LocalEulerAnglesHint.z
      value: 0
      objectReference: {fileID: 0}
    - target: {fileID: 1070810231586084112, guid: 58923b43bdae0ba4da7b1db95df9af90,
        type: 3}
      propertyPath: m_Name
      value: GrassFull 2
      objectReference: {fileID: 0}
    m_RemovedComponents: []
  m_SourcePrefab: {fileID: 100100000, guid: 58923b43bdae0ba4da7b1db95df9af90, type: 3}
--- !u!1001 &489052359
PrefabInstance:
  m_ObjectHideFlags: 0
  serializedVersion: 2
  m_Modification:
    m_TransformParent: {fileID: 0}
    m_Modifications:
    - target: {fileID: 4191727729088084861, guid: fb4c04e71a5b6104e9cb9535b73ac384,
        type: 3}
      propertyPath: m_LocalPosition.x
      value: 5.63
      objectReference: {fileID: 0}
    - target: {fileID: 4191727729088084861, guid: fb4c04e71a5b6104e9cb9535b73ac384,
        type: 3}
      propertyPath: m_LocalPosition.y
      value: -1.83
      objectReference: {fileID: 0}
    - target: {fileID: 4191727729088084861, guid: fb4c04e71a5b6104e9cb9535b73ac384,
        type: 3}
      propertyPath: m_LocalPosition.z
      value: -1
      objectReference: {fileID: 0}
    - target: {fileID: 4191727729088084861, guid: fb4c04e71a5b6104e9cb9535b73ac384,
        type: 3}
      propertyPath: m_LocalRotation.x
      value: 0
      objectReference: {fileID: 0}
    - target: {fileID: 4191727729088084861, guid: fb4c04e71a5b6104e9cb9535b73ac384,
        type: 3}
      propertyPath: m_LocalRotation.y
      value: 0
      objectReference: {fileID: 0}
    - target: {fileID: 4191727729088084861, guid: fb4c04e71a5b6104e9cb9535b73ac384,
        type: 3}
      propertyPath: m_LocalRotation.z
      value: 0
      objectReference: {fileID: 0}
    - target: {fileID: 4191727729088084861, guid: fb4c04e71a5b6104e9cb9535b73ac384,
        type: 3}
      propertyPath: m_LocalRotation.w
      value: 1
      objectReference: {fileID: 0}
    - target: {fileID: 4191727729088084861, guid: fb4c04e71a5b6104e9cb9535b73ac384,
        type: 3}
      propertyPath: m_RootOrder
      value: 4
      objectReference: {fileID: 0}
    - target: {fileID: 4191727729088084861, guid: fb4c04e71a5b6104e9cb9535b73ac384,
        type: 3}
      propertyPath: m_LocalEulerAnglesHint.x
      value: 0
      objectReference: {fileID: 0}
    - target: {fileID: 4191727729088084861, guid: fb4c04e71a5b6104e9cb9535b73ac384,
        type: 3}
      propertyPath: m_LocalEulerAnglesHint.y
      value: 0
      objectReference: {fileID: 0}
    - target: {fileID: 4191727729088084861, guid: fb4c04e71a5b6104e9cb9535b73ac384,
        type: 3}
      propertyPath: m_LocalEulerAnglesHint.z
      value: 0
      objectReference: {fileID: 0}
    - target: {fileID: 4191727729088084861, guid: fb4c04e71a5b6104e9cb9535b73ac384,
        type: 3}
      propertyPath: m_LocalScale.x
      value: 0.6
      objectReference: {fileID: 0}
    - target: {fileID: 4191727729088084861, guid: fb4c04e71a5b6104e9cb9535b73ac384,
        type: 3}
      propertyPath: m_LocalScale.y
      value: 0.6
      objectReference: {fileID: 0}
    - target: {fileID: 4191727729088084863, guid: fb4c04e71a5b6104e9cb9535b73ac384,
        type: 3}
      propertyPath: m_Name
      value: Cheese
      objectReference: {fileID: 0}
    m_RemovedComponents: []
  m_SourcePrefab: {fileID: 100100000, guid: fb4c04e71a5b6104e9cb9535b73ac384, type: 3}
--- !u!1001 &571629178
PrefabInstance:
  m_ObjectHideFlags: 0
  serializedVersion: 2
  m_Modification:
    m_TransformParent: {fileID: 0}
    m_Modifications:
    - target: {fileID: 487438334621887617, guid: 3dabb7ec417ca974e86c6b8fd61b7341,
        type: 3}
      propertyPath: m_LocalPosition.x
      value: -4.93
      objectReference: {fileID: 0}
    - target: {fileID: 487438334621887617, guid: 3dabb7ec417ca974e86c6b8fd61b7341,
        type: 3}
      propertyPath: m_LocalPosition.y
      value: -2.48
      objectReference: {fileID: 0}
    - target: {fileID: 487438334621887617, guid: 3dabb7ec417ca974e86c6b8fd61b7341,
        type: 3}
      propertyPath: m_LocalPosition.z
      value: -1
      objectReference: {fileID: 0}
    - target: {fileID: 487438334621887617, guid: 3dabb7ec417ca974e86c6b8fd61b7341,
        type: 3}
      propertyPath: m_LocalRotation.x
      value: 0
      objectReference: {fileID: 0}
    - target: {fileID: 487438334621887617, guid: 3dabb7ec417ca974e86c6b8fd61b7341,
        type: 3}
      propertyPath: m_LocalRotation.y
      value: 0
      objectReference: {fileID: 0}
    - target: {fileID: 487438334621887617, guid: 3dabb7ec417ca974e86c6b8fd61b7341,
        type: 3}
      propertyPath: m_LocalRotation.z
      value: 0
      objectReference: {fileID: 0}
    - target: {fileID: 487438334621887617, guid: 3dabb7ec417ca974e86c6b8fd61b7341,
        type: 3}
      propertyPath: m_LocalRotation.w
      value: 1
      objectReference: {fileID: 0}
    - target: {fileID: 487438334621887617, guid: 3dabb7ec417ca974e86c6b8fd61b7341,
        type: 3}
      propertyPath: m_RootOrder
      value: 9
      objectReference: {fileID: 0}
    - target: {fileID: 487438334621887617, guid: 3dabb7ec417ca974e86c6b8fd61b7341,
        type: 3}
      propertyPath: m_LocalEulerAnglesHint.x
      value: 0
      objectReference: {fileID: 0}
    - target: {fileID: 487438334621887617, guid: 3dabb7ec417ca974e86c6b8fd61b7341,
        type: 3}
      propertyPath: m_LocalEulerAnglesHint.y
      value: 0
      objectReference: {fileID: 0}
    - target: {fileID: 487438334621887617, guid: 3dabb7ec417ca974e86c6b8fd61b7341,
        type: 3}
      propertyPath: m_LocalEulerAnglesHint.z
      value: 0
      objectReference: {fileID: 0}
    - target: {fileID: 1175464863632537568, guid: 3dabb7ec417ca974e86c6b8fd61b7341,
        type: 3}
      propertyPath: m_Name
      value: mouseSleeps
      objectReference: {fileID: 0}
    m_RemovedComponents: []
  m_SourcePrefab: {fileID: 100100000, guid: 3dabb7ec417ca974e86c6b8fd61b7341, type: 3}
--- !u!1001 &587605890
PrefabInstance:
  m_ObjectHideFlags: 0
  serializedVersion: 2
  m_Modification:
    m_TransformParent: {fileID: 0}
    m_Modifications:
    - target: {fileID: 434575275442622905, guid: 53369fea727c5d24ab423b782274f41f,
        type: 3}
      propertyPath: noOfItems
      value: 1
      objectReference: {fileID: 0}
    - target: {fileID: 7966239787764111442, guid: 53369fea727c5d24ab423b782274f41f,
        type: 3}
      propertyPath: m_Name
      value: bottomPanel
      objectReference: {fileID: 0}
    - target: {fileID: 7966239787764111444, guid: 53369fea727c5d24ab423b782274f41f,
        type: 3}
      propertyPath: m_LocalPosition.x
      value: 0
      objectReference: {fileID: 0}
    - target: {fileID: 7966239787764111444, guid: 53369fea727c5d24ab423b782274f41f,
        type: 3}
      propertyPath: m_LocalPosition.y
      value: -4
      objectReference: {fileID: 0}
    - target: {fileID: 7966239787764111444, guid: 53369fea727c5d24ab423b782274f41f,
        type: 3}
      propertyPath: m_LocalPosition.z
      value: 0
      objectReference: {fileID: 0}
    - target: {fileID: 7966239787764111444, guid: 53369fea727c5d24ab423b782274f41f,
        type: 3}
      propertyPath: m_LocalRotation.x
      value: 0
      objectReference: {fileID: 0}
    - target: {fileID: 7966239787764111444, guid: 53369fea727c5d24ab423b782274f41f,
        type: 3}
      propertyPath: m_LocalRotation.y
      value: 0
      objectReference: {fileID: 0}
    - target: {fileID: 7966239787764111444, guid: 53369fea727c5d24ab423b782274f41f,
        type: 3}
      propertyPath: m_LocalRotation.z
      value: 0
      objectReference: {fileID: 0}
    - target: {fileID: 7966239787764111444, guid: 53369fea727c5d24ab423b782274f41f,
        type: 3}
      propertyPath: m_LocalRotation.w
      value: 1
      objectReference: {fileID: 0}
    - target: {fileID: 7966239787764111444, guid: 53369fea727c5d24ab423b782274f41f,
        type: 3}
      propertyPath: m_RootOrder
      value: 3
      objectReference: {fileID: 0}
    - target: {fileID: 7966239787764111444, guid: 53369fea727c5d24ab423b782274f41f,
        type: 3}
      propertyPath: m_LocalEulerAnglesHint.x
      value: 0
      objectReference: {fileID: 0}
    - target: {fileID: 7966239787764111444, guid: 53369fea727c5d24ab423b782274f41f,
        type: 3}
      propertyPath: m_LocalEulerAnglesHint.y
      value: 0
      objectReference: {fileID: 0}
    - target: {fileID: 7966239787764111444, guid: 53369fea727c5d24ab423b782274f41f,
        type: 3}
      propertyPath: m_LocalEulerAnglesHint.z
      value: 0
      objectReference: {fileID: 0}
    m_RemovedComponents: []
  m_SourcePrefab: {fileID: 100100000, guid: 53369fea727c5d24ab423b782274f41f, type: 3}
--- !u!1001 &672665437
PrefabInstance:
  m_ObjectHideFlags: 0
  serializedVersion: 2
  m_Modification:
    m_TransformParent: {fileID: 0}
    m_Modifications:
    - target: {fileID: 2900885522290898561, guid: f710f29562c2a09448124ac7b5a036be,
        type: 3}
      propertyPath: timeTarget
      value: 15
      objectReference: {fileID: 0}
    - target: {fileID: 8945960662992305941, guid: f710f29562c2a09448124ac7b5a036be,
        type: 3}
      propertyPath: m_LocalPosition.x
      value: 0
      objectReference: {fileID: 0}
    - target: {fileID: 8945960662992305941, guid: f710f29562c2a09448124ac7b5a036be,
        type: 3}
      propertyPath: m_LocalPosition.y
      value: 4
      objectReference: {fileID: 0}
    - target: {fileID: 8945960662992305941, guid: f710f29562c2a09448124ac7b5a036be,
        type: 3}
      propertyPath: m_LocalPosition.z
      value: 0
      objectReference: {fileID: 0}
    - target: {fileID: 8945960662992305941, guid: f710f29562c2a09448124ac7b5a036be,
        type: 3}
      propertyPath: m_LocalRotation.x
      value: 0
      objectReference: {fileID: 0}
    - target: {fileID: 8945960662992305941, guid: f710f29562c2a09448124ac7b5a036be,
        type: 3}
      propertyPath: m_LocalRotation.y
      value: 0
      objectReference: {fileID: 0}
    - target: {fileID: 8945960662992305941, guid: f710f29562c2a09448124ac7b5a036be,
        type: 3}
      propertyPath: m_LocalRotation.z
      value: 0
      objectReference: {fileID: 0}
    - target: {fileID: 8945960662992305941, guid: f710f29562c2a09448124ac7b5a036be,
        type: 3}
      propertyPath: m_LocalRotation.w
      value: 1
      objectReference: {fileID: 0}
    - target: {fileID: 8945960662992305941, guid: f710f29562c2a09448124ac7b5a036be,
        type: 3}
      propertyPath: m_RootOrder
      value: 2
      objectReference: {fileID: 0}
    - target: {fileID: 8945960662992305941, guid: f710f29562c2a09448124ac7b5a036be,
        type: 3}
      propertyPath: m_LocalEulerAnglesHint.x
      value: 0
      objectReference: {fileID: 0}
    - target: {fileID: 8945960662992305941, guid: f710f29562c2a09448124ac7b5a036be,
        type: 3}
      propertyPath: m_LocalEulerAnglesHint.y
      value: 0
      objectReference: {fileID: 0}
    - target: {fileID: 8945960662992305941, guid: f710f29562c2a09448124ac7b5a036be,
        type: 3}
      propertyPath: m_LocalEulerAnglesHint.z
      value: 0
      objectReference: {fileID: 0}
    - target: {fileID: 8945960662992306155, guid: f710f29562c2a09448124ac7b5a036be,
        type: 3}
      propertyPath: m_Name
      value: topPanel
      objectReference: {fileID: 0}
    m_RemovedComponents: []
  m_SourcePrefab: {fileID: 100100000, guid: f710f29562c2a09448124ac7b5a036be, type: 3}
--- !u!1001 &922277316
PrefabInstance:
  m_ObjectHideFlags: 0
  serializedVersion: 2
  m_Modification:
    m_TransformParent: {fileID: 0}
    m_Modifications:
    - target: {fileID: -2543572514829428232, guid: 11bbc070a160dc94ca0db303301ab847,
        type: 3}
      propertyPath: tagStickHere
      value: 1
      objectReference: {fileID: 0}
    - target: {fileID: -2543572514829428232, guid: 11bbc070a160dc94ca0db303301ab847,
        type: 3}
      propertyPath: tagFenceHere
      value: 1
      objectReference: {fileID: 0}
    - target: {fileID: -2543572514829428232, guid: 11bbc070a160dc94ca0db303301ab847,
        type: 3}
      propertyPath: tagJumperHere
      value: 1
      objectReference: {fileID: 0}
    - target: {fileID: -2543572514829428232, guid: 11bbc070a160dc94ca0db303301ab847,
        type: 3}
      propertyPath: tagWoolHere
      value: 1
      objectReference: {fileID: 0}
    - target: {fileID: -2543572514829428232, guid: 11bbc070a160dc94ca0db303301ab847,
        type: 3}
      propertyPath: tagCageHere
      value: 1
      objectReference: {fileID: 0}
    - target: {fileID: -2543572514829428232, guid: 11bbc070a160dc94ca0db303301ab847,
        type: 3}
      propertyPath: tagSticksHere
      value: 1
      objectReference: {fileID: 0}
    - target: {fileID: 7152363240828079128, guid: 11bbc070a160dc94ca0db303301ab847,
        type: 3}
      propertyPath: m_Name
      value: putItemHere
      objectReference: {fileID: 0}
    - target: {fileID: 8981828696667485791, guid: 11bbc070a160dc94ca0db303301ab847,
        type: 3}
      propertyPath: m_LocalPosition.x
      value: -0.59
      objectReference: {fileID: 0}
    - target: {fileID: 8981828696667485791, guid: 11bbc070a160dc94ca0db303301ab847,
        type: 3}
      propertyPath: m_LocalPosition.y
      value: -1.99
      objectReference: {fileID: 0}
    - target: {fileID: 8981828696667485791, guid: 11bbc070a160dc94ca0db303301ab847,
        type: 3}
      propertyPath: m_LocalPosition.z
      value: -1.6152344
      objectReference: {fileID: 0}
    - target: {fileID: 8981828696667485791, guid: 11bbc070a160dc94ca0db303301ab847,
        type: 3}
      propertyPath: m_LocalRotation.x
      value: 0
      objectReference: {fileID: 0}
    - target: {fileID: 8981828696667485791, guid: 11bbc070a160dc94ca0db303301ab847,
        type: 3}
      propertyPath: m_LocalRotation.y
      value: 0
      objectReference: {fileID: 0}
    - target: {fileID: 8981828696667485791, guid: 11bbc070a160dc94ca0db303301ab847,
        type: 3}
      propertyPath: m_LocalRotation.z
      value: 0
      objectReference: {fileID: 0}
    - target: {fileID: 8981828696667485791, guid: 11bbc070a160dc94ca0db303301ab847,
        type: 3}
      propertyPath: m_LocalRotation.w
      value: 1
      objectReference: {fileID: 0}
    - target: {fileID: 8981828696667485791, guid: 11bbc070a160dc94ca0db303301ab847,
        type: 3}
      propertyPath: m_RootOrder
      value: 8
      objectReference: {fileID: 0}
    - target: {fileID: 8981828696667485791, guid: 11bbc070a160dc94ca0db303301ab847,
        type: 3}
      propertyPath: m_LocalEulerAnglesHint.x
      value: 0
      objectReference: {fileID: 0}
    - target: {fileID: 8981828696667485791, guid: 11bbc070a160dc94ca0db303301ab847,
        type: 3}
      propertyPath: m_LocalEulerAnglesHint.y
      value: 0
      objectReference: {fileID: 0}
    - target: {fileID: 8981828696667485791, guid: 11bbc070a160dc94ca0db303301ab847,
        type: 3}
      propertyPath: m_LocalEulerAnglesHint.z
      value: 0
      objectReference: {fileID: 0}
    m_RemovedComponents: []
  m_SourcePrefab: {fileID: 100100000, guid: 11bbc070a160dc94ca0db303301ab847, type: 3}
--- !u!1001 &1044795230
PrefabInstance:
  m_ObjectHideFlags: 0
  serializedVersion: 2
  m_Modification:
    m_TransformParent: {fileID: 0}
    m_Modifications:
    - target: {fileID: 4503537330458239944, guid: 17f48d9bbcfc4424b8bb7cf93f8b053b,
        type: 3}
      propertyPath: m_Name
      value: Background
      objectReference: {fileID: 0}
    - target: {fileID: 4503537330458239946, guid: 17f48d9bbcfc4424b8bb7cf93f8b053b,
        type: 3}
      propertyPath: m_LocalPosition.x
      value: 0
      objectReference: {fileID: 0}
    - target: {fileID: 4503537330458239946, guid: 17f48d9bbcfc4424b8bb7cf93f8b053b,
        type: 3}
      propertyPath: m_LocalPosition.y
      value: 0
      objectReference: {fileID: 0}
    - target: {fileID: 4503537330458239946, guid: 17f48d9bbcfc4424b8bb7cf93f8b053b,
        type: 3}
      propertyPath: m_LocalPosition.z
      value: 0
      objectReference: {fileID: 0}
    - target: {fileID: 4503537330458239946, guid: 17f48d9bbcfc4424b8bb7cf93f8b053b,
        type: 3}
      propertyPath: m_LocalRotation.x
      value: 0
      objectReference: {fileID: 0}
    - target: {fileID: 4503537330458239946, guid: 17f48d9bbcfc4424b8bb7cf93f8b053b,
        type: 3}
      propertyPath: m_LocalRotation.y
      value: 0
      objectReference: {fileID: 0}
    - target: {fileID: 4503537330458239946, guid: 17f48d9bbcfc4424b8bb7cf93f8b053b,
        type: 3}
      propertyPath: m_LocalRotation.z
      value: 0
      objectReference: {fileID: 0}
    - target: {fileID: 4503537330458239946, guid: 17f48d9bbcfc4424b8bb7cf93f8b053b,
        type: 3}
      propertyPath: m_LocalRotation.w
      value: 1
      objectReference: {fileID: 0}
    - target: {fileID: 4503537330458239946, guid: 17f48d9bbcfc4424b8bb7cf93f8b053b,
        type: 3}
      propertyPath: m_RootOrder
      value: 1
      objectReference: {fileID: 0}
    - target: {fileID: 4503537330458239946, guid: 17f48d9bbcfc4424b8bb7cf93f8b053b,
        type: 3}
      propertyPath: m_LocalEulerAnglesHint.x
      value: 0
      objectReference: {fileID: 0}
    - target: {fileID: 4503537330458239946, guid: 17f48d9bbcfc4424b8bb7cf93f8b053b,
        type: 3}
      propertyPath: m_LocalEulerAnglesHint.y
      value: 0
      objectReference: {fileID: 0}
    - target: {fileID: 4503537330458239946, guid: 17f48d9bbcfc4424b8bb7cf93f8b053b,
        type: 3}
      propertyPath: m_LocalEulerAnglesHint.z
      value: 0
      objectReference: {fileID: 0}
    m_RemovedComponents: []
  m_SourcePrefab: {fileID: 100100000, guid: 17f48d9bbcfc4424b8bb7cf93f8b053b, type: 3}
--- !u!1001 &1308237201
PrefabInstance:
  m_ObjectHideFlags: 0
  serializedVersion: 2
  m_Modification:
    m_TransformParent: {fileID: 0}
    m_Modifications:
    - target: {fileID: 2130439681782209752, guid: b3a02d1d2e30835499c009cb454f7515,
        type: 3}
      propertyPath: m_SortingOrder
      value: 3
      objectReference: {fileID: 0}
    - target: {fileID: 2130439681782209753, guid: b3a02d1d2e30835499c009cb454f7515,
        type: 3}
      propertyPath: m_Name
      value: Cactus (1)
      objectReference: {fileID: 0}
    - target: {fileID: 2130439681782209759, guid: b3a02d1d2e30835499c009cb454f7515,
        type: 3}
      propertyPath: m_LocalPosition.x
      value: 2.83
      objectReference: {fileID: 0}
    - target: {fileID: 2130439681782209759, guid: b3a02d1d2e30835499c009cb454f7515,
        type: 3}
      propertyPath: m_LocalPosition.y
      value: -1.47
      objectReference: {fileID: 0}
    - target: {fileID: 2130439681782209759, guid: b3a02d1d2e30835499c009cb454f7515,
        type: 3}
      propertyPath: m_LocalPosition.z
      value: -1
      objectReference: {fileID: 0}
    - target: {fileID: 2130439681782209759, guid: b3a02d1d2e30835499c009cb454f7515,
        type: 3}
      propertyPath: m_LocalRotation.x
      value: 0
      objectReference: {fileID: 0}
    - target: {fileID: 2130439681782209759, guid: b3a02d1d2e30835499c009cb454f7515,
        type: 3}
      propertyPath: m_LocalRotation.y
      value: 0
      objectReference: {fileID: 0}
    - target: {fileID: 2130439681782209759, guid: b3a02d1d2e30835499c009cb454f7515,
        type: 3}
      propertyPath: m_LocalRotation.z
      value: 0
      objectReference: {fileID: 0}
    - target: {fileID: 2130439681782209759, guid: b3a02d1d2e30835499c009cb454f7515,
        type: 3}
      propertyPath: m_LocalRotation.w
      value: 1
      objectReference: {fileID: 0}
    - target: {fileID: 2130439681782209759, guid: b3a02d1d2e30835499c009cb454f7515,
        type: 3}
      propertyPath: m_RootOrder
      value: 5
      objectReference: {fileID: 0}
    - target: {fileID: 2130439681782209759, guid: b3a02d1d2e30835499c009cb454f7515,
        type: 3}
      propertyPath: m_LocalEulerAnglesHint.x
      value: 0
      objectReference: {fileID: 0}
    - target: {fileID: 2130439681782209759, guid: b3a02d1d2e30835499c009cb454f7515,
        type: 3}
      propertyPath: m_LocalEulerAnglesHint.y
      value: 0
      objectReference: {fileID: 0}
    - target: {fileID: 2130439681782209759, guid: b3a02d1d2e30835499c009cb454f7515,
        type: 3}
      propertyPath: m_LocalEulerAnglesHint.z
      value: 0
      objectReference: {fileID: 0}
    - target: {fileID: 2130439681782209759, guid: b3a02d1d2e30835499c009cb454f7515,
        type: 3}
      propertyPath: m_LocalScale.x
      value: 0.8
      objectReference: {fileID: 0}
    - target: {fileID: 2130439681782209759, guid: b3a02d1d2e30835499c009cb454f7515,
        type: 3}
      propertyPath: m_LocalScale.y
      value: 0.8
      objectReference: {fileID: 0}
    - target: {fileID: 5229386342382851936, guid: b3a02d1d2e30835499c009cb454f7515,
        type: 3}
      propertyPath: m_Points.m_Paths.Array.data[0].Array.data[0].x
      value: 1.14
      objectReference: {fileID: 0}
    - target: {fileID: 5229386342382851936, guid: b3a02d1d2e30835499c009cb454f7515,
        type: 3}
      propertyPath: m_Points.m_Paths.Array.data[0].Array.data[0].y
      value: -1.1
      objectReference: {fileID: 0}
    - target: {fileID: 5229386342382851936, guid: b3a02d1d2e30835499c009cb454f7515,
        type: 3}
      propertyPath: m_Points.m_Paths.Array.data[0].Array.data[1].x
      value: 1.1
      objectReference: {fileID: 0}
    - target: {fileID: 5229386342382851936, guid: b3a02d1d2e30835499c009cb454f7515,
        type: 3}
      propertyPath: m_Points.m_Paths.Array.data[0].Array.data[1].y
      value: -1.06
      objectReference: {fileID: 0}
    - target: {fileID: 5229386342382851936, guid: b3a02d1d2e30835499c009cb454f7515,
        type: 3}
      propertyPath: m_Points.m_Paths.Array.data[0].Array.data[2].x
      value: 1.06
      objectReference: {fileID: 0}
    - target: {fileID: 5229386342382851936, guid: b3a02d1d2e30835499c009cb454f7515,
        type: 3}
      propertyPath: m_Points.m_Paths.Array.data[0].Array.data[2].y
      value: -1.06
      objectReference: {fileID: 0}
    - target: {fileID: 5229386342382851936, guid: b3a02d1d2e30835499c009cb454f7515,
        type: 3}
      propertyPath: m_Points.m_Paths.Array.data[0].Array.data[3].x
      value: 1.01
      objectReference: {fileID: 0}
    - target: {fileID: 5229386342382851936, guid: b3a02d1d2e30835499c009cb454f7515,
        type: 3}
      propertyPath: m_Points.m_Paths.Array.data[0].Array.data[3].y
      value: -1.0699999
      objectReference: {fileID: 0}
    - target: {fileID: 5229386342382851936, guid: b3a02d1d2e30835499c009cb454f7515,
        type: 3}
      propertyPath: m_Points.m_Paths.Array.data[0].Array.data[4].x
      value: 1.05
      objectReference: {fileID: 0}
    - target: {fileID: 5229386342382851936, guid: b3a02d1d2e30835499c009cb454f7515,
        type: 3}
      propertyPath: m_Points.m_Paths.Array.data[0].Array.data[4].y
      value: -0.88
      objectReference: {fileID: 0}
    - target: {fileID: 5229386342382851936, guid: b3a02d1d2e30835499c009cb454f7515,
        type: 3}
      propertyPath: m_Points.m_Paths.Array.data[0].Array.data[5].x
      value: 1.14
      objectReference: {fileID: 0}
    - target: {fileID: 5229386342382851936, guid: b3a02d1d2e30835499c009cb454f7515,
        type: 3}
      propertyPath: m_Points.m_Paths.Array.data[0].Array.data[5].y
      value: -0.84
      objectReference: {fileID: 0}
    - target: {fileID: 5229386342382851936, guid: b3a02d1d2e30835499c009cb454f7515,
        type: 3}
      propertyPath: m_Points.m_Paths.Array.data[0].Array.data[6].x
      value: 1.18
      objectReference: {fileID: 0}
    - target: {fileID: 5229386342382851936, guid: b3a02d1d2e30835499c009cb454f7515,
        type: 3}
      propertyPath: m_Points.m_Paths.Array.data[0].Array.data[6].y
      value: -0.76
      objectReference: {fileID: 0}
    - target: {fileID: 5229386342382851936, guid: b3a02d1d2e30835499c009cb454f7515,
        type: 3}
      propertyPath: m_Points.m_Paths.Array.data[0].Array.data[7].x
      value: 1.16
      objectReference: {fileID: 0}
    - target: {fileID: 5229386342382851936, guid: b3a02d1d2e30835499c009cb454f7515,
        type: 3}
      propertyPath: m_Points.m_Paths.Array.data[0].Array.data[7].y
      value: -0.71999997
      objectReference: {fileID: 0}
    - target: {fileID: 5229386342382851936, guid: b3a02d1d2e30835499c009cb454f7515,
        type: 3}
      propertyPath: m_Points.m_Paths.Array.data[0].Array.data[8].x
      value: 1.03
      objectReference: {fileID: 0}
    - target: {fileID: 5229386342382851936, guid: b3a02d1d2e30835499c009cb454f7515,
        type: 3}
      propertyPath: m_Points.m_Paths.Array.data[0].Array.data[8].y
      value: -0.75
      objectReference: {fileID: 0}
    - target: {fileID: 5229386342382851936, guid: b3a02d1d2e30835499c009cb454f7515,
        type: 3}
      propertyPath: m_Points.m_Paths.Array.data[0].Array.data[9].x
      value: 1.12
      objectReference: {fileID: 0}
    - target: {fileID: 5229386342382851936, guid: b3a02d1d2e30835499c009cb454f7515,
        type: 3}
      propertyPath: m_Points.m_Paths.Array.data[0].Array.data[9].y
      value: -0.47
      objectReference: {fileID: 0}
    - target: {fileID: 5229386342382851936, guid: b3a02d1d2e30835499c009cb454f7515,
        type: 3}
      propertyPath: m_Points.m_Paths.Array.data[0].Array.data[10].x
      value: 1.1999999
      objectReference: {fileID: 0}
    - target: {fileID: 5229386342382851936, guid: b3a02d1d2e30835499c009cb454f7515,
        type: 3}
      propertyPath: m_Points.m_Paths.Array.data[0].Array.data[10].y
      value: -0.38
      objectReference: {fileID: 0}
    - target: {fileID: 5229386342382851936, guid: b3a02d1d2e30835499c009cb454f7515,
        type: 3}
      propertyPath: m_Points.m_Paths.Array.data[0].Array.data[11].x
      value: 1.1999999
      objectReference: {fileID: 0}
    - target: {fileID: 5229386342382851936, guid: b3a02d1d2e30835499c009cb454f7515,
        type: 3}
      propertyPath: m_Points.m_Paths.Array.data[0].Array.data[11].y
      value: -0.32999998
      objectReference: {fileID: 0}
    - target: {fileID: 5229386342382851936, guid: b3a02d1d2e30835499c009cb454f7515,
        type: 3}
      propertyPath: m_Points.m_Paths.Array.data[0].Array.data[12].x
      value: 1.0799999
      objectReference: {fileID: 0}
    - target: {fileID: 5229386342382851936, guid: b3a02d1d2e30835499c009cb454f7515,
        type: 3}
      propertyPath: m_Points.m_Paths.Array.data[0].Array.data[12].y
      value: -0.34
      objectReference: {fileID: 0}
    - target: {fileID: 5229386342382851936, guid: b3a02d1d2e30835499c009cb454f7515,
        type: 3}
      propertyPath: m_Points.m_Paths.Array.data[0].Array.data[13].x
      value: 1.0799999
      objectReference: {fileID: 0}
    - target: {fileID: 5229386342382851936, guid: b3a02d1d2e30835499c009cb454f7515,
        type: 3}
      propertyPath: m_Points.m_Paths.Array.data[0].Array.data[13].y
      value: -0.26
      objectReference: {fileID: 0}
    - target: {fileID: 5229386342382851936, guid: b3a02d1d2e30835499c009cb454f7515,
        type: 3}
      propertyPath: m_Points.m_Paths.Array.data[0].Array.data[14].x
      value: 1.1899999
      objectReference: {fileID: 0}
    - target: {fileID: 5229386342382851936, guid: b3a02d1d2e30835499c009cb454f7515,
        type: 3}
      propertyPath: m_Points.m_Paths.Array.data[0].Array.data[14].y
      value: -0.14999999
      objectReference: {fileID: 0}
    - target: {fileID: 5229386342382851936, guid: b3a02d1d2e30835499c009cb454f7515,
        type: 3}
      propertyPath: m_Points.m_Paths.Array.data[0].Array.data[15].x
      value: 1.1999999
      objectReference: {fileID: 0}
    - target: {fileID: 5229386342382851936, guid: b3a02d1d2e30835499c009cb454f7515,
        type: 3}
      propertyPath: m_Points.m_Paths.Array.data[0].Array.data[15].y
      value: -0.11
      objectReference: {fileID: 0}
    - target: {fileID: 5229386342382851936, guid: b3a02d1d2e30835499c009cb454f7515,
        type: 3}
      propertyPath: m_Points.m_Paths.Array.data[0].Array.data[16].x
      value: 1.1999999
      objectReference: {fileID: 0}
    - target: {fileID: 5229386342382851936, guid: b3a02d1d2e30835499c009cb454f7515,
        type: 3}
      propertyPath: m_Points.m_Paths.Array.data[0].Array.data[16].y
      value: -0.06
      objectReference: {fileID: 0}
    - target: {fileID: 5229386342382851936, guid: b3a02d1d2e30835499c009cb454f7515,
        type: 3}
      propertyPath: m_Points.m_Paths.Array.data[0].Array.data[17].x
      value: 1.03
      objectReference: {fileID: 0}
    - target: {fileID: 5229386342382851936, guid: b3a02d1d2e30835499c009cb454f7515,
        type: 3}
      propertyPath: m_Points.m_Paths.Array.data[0].Array.data[18].x
      value: 0.97999996
      objectReference: {fileID: 0}
    - target: {fileID: 5229386342382851936, guid: b3a02d1d2e30835499c009cb454f7515,
        type: 3}
      propertyPath: m_Points.m_Paths.Array.data[0].Array.data[18].y
      value: 0.29
      objectReference: {fileID: 0}
    - target: {fileID: 5229386342382851936, guid: b3a02d1d2e30835499c009cb454f7515,
        type: 3}
      propertyPath: m_Points.m_Paths.Array.data[0].Array.data[19].x
      value: 1.01
      objectReference: {fileID: 0}
    - target: {fileID: 5229386342382851936, guid: b3a02d1d2e30835499c009cb454f7515,
        type: 3}
      propertyPath: m_Points.m_Paths.Array.data[0].Array.data[19].y
      value: 0.42
      objectReference: {fileID: 0}
    - target: {fileID: 5229386342382851936, guid: b3a02d1d2e30835499c009cb454f7515,
        type: 3}
      propertyPath: m_Points.m_Paths.Array.data[0].Array.data[20].x
      value: 0.95
      objectReference: {fileID: 0}
    - target: {fileID: 5229386342382851936, guid: b3a02d1d2e30835499c009cb454f7515,
        type: 3}
      propertyPath: m_Points.m_Paths.Array.data[0].Array.data[20].y
      value: 0.45
      objectReference: {fileID: 0}
    - target: {fileID: 5229386342382851936, guid: b3a02d1d2e30835499c009cb454f7515,
        type: 3}
      propertyPath: m_Points.m_Paths.Array.data[0].Array.data[21].x
      value: 0.88
      objectReference: {fileID: 0}
    - target: {fileID: 5229386342382851936, guid: b3a02d1d2e30835499c009cb454f7515,
        type: 3}
      propertyPath: m_Points.m_Paths.Array.data[0].Array.data[21].y
      value: 0.68
      objectReference: {fileID: 0}
    - target: {fileID: 5229386342382851936, guid: b3a02d1d2e30835499c009cb454f7515,
        type: 3}
      propertyPath: m_Points.m_Paths.Array.data[0].Array.data[22].x
      value: 0.94
      objectReference: {fileID: 0}
    - target: {fileID: 5229386342382851936, guid: b3a02d1d2e30835499c009cb454f7515,
        type: 3}
      propertyPath: m_Points.m_Paths.Array.data[0].Array.data[22].y
      value: 0.81
      objectReference: {fileID: 0}
    - target: {fileID: 5229386342382851936, guid: b3a02d1d2e30835499c009cb454f7515,
        type: 3}
      propertyPath: m_Points.m_Paths.Array.data[0].Array.data[23].x
      value: 0.93
      objectReference: {fileID: 0}
    - target: {fileID: 5229386342382851936, guid: b3a02d1d2e30835499c009cb454f7515,
        type: 3}
      propertyPath: m_Points.m_Paths.Array.data[0].Array.data[23].y
      value: 0.87
      objectReference: {fileID: 0}
    - target: {fileID: 5229386342382851936, guid: b3a02d1d2e30835499c009cb454f7515,
        type: 3}
      propertyPath: m_Points.m_Paths.Array.data[0].Array.data[24].x
      value: 0.81
      objectReference: {fileID: 0}
    - target: {fileID: 5229386342382851936, guid: b3a02d1d2e30835499c009cb454f7515,
        type: 3}
      propertyPath: m_Points.m_Paths.Array.data[0].Array.data[24].y
      value: 0.81
      objectReference: {fileID: 0}
    - target: {fileID: 5229386342382851936, guid: b3a02d1d2e30835499c009cb454f7515,
        type: 3}
      propertyPath: m_Points.m_Paths.Array.data[0].Array.data[25].x
      value: 0.75
      objectReference: {fileID: 0}
    - target: {fileID: 5229386342382851936, guid: b3a02d1d2e30835499c009cb454f7515,
        type: 3}
      propertyPath: m_Points.m_Paths.Array.data[0].Array.data[25].y
      value: 0.90999997
      objectReference: {fileID: 0}
    - target: {fileID: 5229386342382851936, guid: b3a02d1d2e30835499c009cb454f7515,
        type: 3}
      propertyPath: m_Points.m_Paths.Array.data[0].Array.data[26].x
      value: 0.79999995
      objectReference: {fileID: 0}
    - target: {fileID: 5229386342382851936, guid: b3a02d1d2e30835499c009cb454f7515,
        type: 3}
      propertyPath: m_Points.m_Paths.Array.data[0].Array.data[26].y
      value: 1.05
      objectReference: {fileID: 0}
    - target: {fileID: 5229386342382851936, guid: b3a02d1d2e30835499c009cb454f7515,
        type: 3}
      propertyPath: m_Points.m_Paths.Array.data[0].Array.data[27].x
      value: 0.77
      objectReference: {fileID: 0}
    - target: {fileID: 5229386342382851936, guid: b3a02d1d2e30835499c009cb454f7515,
        type: 3}
      propertyPath: m_Points.m_Paths.Array.data[0].Array.data[27].y
      value: 1.0799999
      objectReference: {fileID: 0}
    - target: {fileID: 5229386342382851936, guid: b3a02d1d2e30835499c009cb454f7515,
        type: 3}
      propertyPath: m_Points.m_Paths.Array.data[0].Array.data[28].x
      value: 0.68
      objectReference: {fileID: 0}
    - target: {fileID: 5229386342382851936, guid: b3a02d1d2e30835499c009cb454f7515,
        type: 3}
      propertyPath: m_Points.m_Paths.Array.data[0].Array.data[28].y
      value: 1.03
      objectReference: {fileID: 0}
    - target: {fileID: 5229386342382851936, guid: b3a02d1d2e30835499c009cb454f7515,
        type: 3}
      propertyPath: m_Points.m_Paths.Array.data[0].Array.data[29].x
      value: 0.63
      objectReference: {fileID: 0}
    - target: {fileID: 5229386342382851936, guid: b3a02d1d2e30835499c009cb454f7515,
        type: 3}
      propertyPath: m_Points.m_Paths.Array.data[0].Array.data[29].y
      value: 1.14
      objectReference: {fileID: 0}
    - target: {fileID: 5229386342382851936, guid: b3a02d1d2e30835499c009cb454f7515,
        type: 3}
      propertyPath: m_Points.m_Paths.Array.data[0].Array.data[30].x
      value: 0.65
      objectReference: {fileID: 0}
    - target: {fileID: 5229386342382851936, guid: b3a02d1d2e30835499c009cb454f7515,
        type: 3}
      propertyPath: m_Points.m_Paths.Array.data[0].Array.data[30].y
      value: 1.26
      objectReference: {fileID: 0}
    - target: {fileID: 5229386342382851936, guid: b3a02d1d2e30835499c009cb454f7515,
        type: 3}
      propertyPath: m_Points.m_Paths.Array.data[0].Array.data[31].x
      value: 0.61
      objectReference: {fileID: 0}
    - target: {fileID: 5229386342382851936, guid: b3a02d1d2e30835499c009cb454f7515,
        type: 3}
      propertyPath: m_Points.m_Paths.Array.data[0].Array.data[31].y
      value: 1.28
      objectReference: {fileID: 0}
    - target: {fileID: 5229386342382851936, guid: b3a02d1d2e30835499c009cb454f7515,
        type: 3}
      propertyPath: m_Points.m_Paths.Array.data[0].Array.data[32].x
      value: 0.52
      objectReference: {fileID: 0}
    - target: {fileID: 5229386342382851936, guid: b3a02d1d2e30835499c009cb454f7515,
        type: 3}
      propertyPath: m_Points.m_Paths.Array.data[0].Array.data[32].y
      value: 1.1999999
      objectReference: {fileID: 0}
    - target: {fileID: 5229386342382851936, guid: b3a02d1d2e30835499c009cb454f7515,
        type: 3}
      propertyPath: m_Points.m_Paths.Array.data[0].Array.data[33].x
      value: 0.38
      objectReference: {fileID: 0}
    - target: {fileID: 5229386342382851936, guid: b3a02d1d2e30835499c009cb454f7515,
        type: 3}
      propertyPath: m_Points.m_Paths.Array.data[0].Array.data[33].y
      value: 1.3299999
      objectReference: {fileID: 0}
    - target: {fileID: 5229386342382851936, guid: b3a02d1d2e30835499c009cb454f7515,
        type: 3}
      propertyPath: m_Points.m_Paths.Array.data[0].Array.data[34].x
      value: 0.47
      objectReference: {fileID: 0}
    - target: {fileID: 5229386342382851936, guid: b3a02d1d2e30835499c009cb454f7515,
        type: 3}
      propertyPath: m_Points.m_Paths.Array.data[0].Array.data[34].y
      value: 1.4
      objectReference: {fileID: 0}
    - target: {fileID: 5229386342382851936, guid: b3a02d1d2e30835499c009cb454f7515,
        type: 3}
      propertyPath: m_Points.m_Paths.Array.data[0].Array.data[35].x
      value: 0.53
      objectReference: {fileID: 0}
    - target: {fileID: 5229386342382851936, guid: b3a02d1d2e30835499c009cb454f7515,
        type: 3}
      propertyPath: m_Points.m_Paths.Array.data[0].Array.data[35].y
      value: 1.52
      objectReference: {fileID: 0}
    - target: {fileID: 5229386342382851936, guid: b3a02d1d2e30835499c009cb454f7515,
        type: 3}
      propertyPath: m_Points.m_Paths.Array.data[0].Array.data[36].x
      value: 0.53
      objectReference: {fileID: 0}
    - target: {fileID: 5229386342382851936, guid: b3a02d1d2e30835499c009cb454f7515,
        type: 3}
      propertyPath: m_Points.m_Paths.Array.data[0].Array.data[36].y
      value: 1.5699999
      objectReference: {fileID: 0}
    - target: {fileID: 5229386342382851936, guid: b3a02d1d2e30835499c009cb454f7515,
        type: 3}
      propertyPath: m_Points.m_Paths.Array.data[0].Array.data[37].x
      value: 0.45999998
      objectReference: {fileID: 0}
    - target: {fileID: 5229386342382851936, guid: b3a02d1d2e30835499c009cb454f7515,
        type: 3}
      propertyPath: m_Points.m_Paths.Array.data[0].Array.data[37].y
      value: 1.61
      objectReference: {fileID: 0}
    - target: {fileID: 5229386342382851936, guid: b3a02d1d2e30835499c009cb454f7515,
        type: 3}
      propertyPath: m_Points.m_Paths.Array.data[0].Array.data[38].x
      value: 0.21
      objectReference: {fileID: 0}
    - target: {fileID: 5229386342382851936, guid: b3a02d1d2e30835499c009cb454f7515,
        type: 3}
      propertyPath: m_Points.m_Paths.Array.data[0].Array.data[38].y
      value: 1.5899999
      objectReference: {fileID: 0}
    - target: {fileID: 5229386342382851936, guid: b3a02d1d2e30835499c009cb454f7515,
        type: 3}
      propertyPath: m_Points.m_Paths.Array.data[0].Array.data[39].x
      value: 0.07
      objectReference: {fileID: 0}
    - target: {fileID: 5229386342382851936, guid: b3a02d1d2e30835499c009cb454f7515,
        type: 3}
      propertyPath: m_Points.m_Paths.Array.data[0].Array.data[39].y
      value: 1.78
      objectReference: {fileID: 0}
    - target: {fileID: 5229386342382851936, guid: b3a02d1d2e30835499c009cb454f7515,
        type: 3}
      propertyPath: m_Points.m_Paths.Array.data[0].Array.data[40].x
      value: -0.04
      objectReference: {fileID: 0}
    - target: {fileID: 5229386342382851936, guid: b3a02d1d2e30835499c009cb454f7515,
        type: 3}
      propertyPath: m_Points.m_Paths.Array.data[0].Array.data[40].y
      value: 1.78
      objectReference: {fileID: 0}
    - target: {fileID: 5229386342382851936, guid: b3a02d1d2e30835499c009cb454f7515,
        type: 3}
      propertyPath: m_Points.m_Paths.Array.data[0].Array.data[41].x
      value: -0.17
      objectReference: {fileID: 0}
    - target: {fileID: 5229386342382851936, guid: b3a02d1d2e30835499c009cb454f7515,
        type: 3}
      propertyPath: m_Points.m_Paths.Array.data[0].Array.data[41].y
      value: 1.6999999
      objectReference: {fileID: 0}
    - target: {fileID: 5229386342382851936, guid: b3a02d1d2e30835499c009cb454f7515,
        type: 3}
      propertyPath: m_Points.m_Paths.Array.data[0].Array.data[42].x
      value: -0.45999998
      objectReference: {fileID: 0}
    - target: {fileID: 5229386342382851936, guid: b3a02d1d2e30835499c009cb454f7515,
        type: 3}
      propertyPath: m_Points.m_Paths.Array.data[0].Array.data[42].y
      value: 1.5999999
      objectReference: {fileID: 0}
    - target: {fileID: 5229386342382851936, guid: b3a02d1d2e30835499c009cb454f7515,
        type: 3}
      propertyPath: m_Points.m_Paths.Array.data[0].Array.data[43].x
      value: -0.53
      objectReference: {fileID: 0}
    - target: {fileID: 5229386342382851936, guid: b3a02d1d2e30835499c009cb454f7515,
        type: 3}
      propertyPath: m_Points.m_Paths.Array.data[0].Array.data[43].y
      value: 1.5699999
      objectReference: {fileID: 0}
    - target: {fileID: 5229386342382851936, guid: b3a02d1d2e30835499c009cb454f7515,
        type: 3}
      propertyPath: m_Points.m_Paths.Array.data[0].Array.data[44].x
      value: -0.51
      objectReference: {fileID: 0}
    - target: {fileID: 5229386342382851936, guid: b3a02d1d2e30835499c009cb454f7515,
        type: 3}
      propertyPath: m_Points.m_Paths.Array.data[0].Array.data[44].y
      value: 1.4699999
      objectReference: {fileID: 0}
    - target: {fileID: 5229386342382851936, guid: b3a02d1d2e30835499c009cb454f7515,
        type: 3}
      propertyPath: m_Points.m_Paths.Array.data[0].Array.data[45].x
      value: -0.41
      objectReference: {fileID: 0}
    - target: {fileID: 5229386342382851936, guid: b3a02d1d2e30835499c009cb454f7515,
        type: 3}
      propertyPath: m_Points.m_Paths.Array.data[0].Array.data[45].y
      value: 1.31
      objectReference: {fileID: 0}
    - target: {fileID: 5229386342382851936, guid: b3a02d1d2e30835499c009cb454f7515,
        type: 3}
      propertyPath: m_Points.m_Paths.Array.data[0].Array.data[46].x
      value: -0.59999996
      objectReference: {fileID: 0}
    - target: {fileID: 5229386342382851936, guid: b3a02d1d2e30835499c009cb454f7515,
        type: 3}
      propertyPath: m_Points.m_Paths.Array.data[0].Array.data[46].y
      value: 1.15
      objectReference: {fileID: 0}
    - target: {fileID: 5229386342382851936, guid: b3a02d1d2e30835499c009cb454f7515,
        type: 3}
      propertyPath: m_Points.m_Paths.Array.data[0].Array.data[47].x
      value: -0.65999997
      objectReference: {fileID: 0}
    - target: {fileID: 5229386342382851936, guid: b3a02d1d2e30835499c009cb454f7515,
        type: 3}
      propertyPath: m_Points.m_Paths.Array.data[0].Array.data[47].y
      value: 1.2099999
      objectReference: {fileID: 0}
    - target: {fileID: 5229386342382851936, guid: b3a02d1d2e30835499c009cb454f7515,
        type: 3}
      propertyPath: m_Points.m_Paths.Array.data[0].Array.data[48].x
      value: -0.72999996
      objectReference: {fileID: 0}
    - target: {fileID: 5229386342382851936, guid: b3a02d1d2e30835499c009cb454f7515,
        type: 3}
      propertyPath: m_Points.m_Paths.Array.data[0].Array.data[48].y
      value: 1.25
      objectReference: {fileID: 0}
    - target: {fileID: 5229386342382851936, guid: b3a02d1d2e30835499c009cb454f7515,
        type: 3}
      propertyPath: m_Points.m_Paths.Array.data[0].Array.data[49].x
      value: -0.77
      objectReference: {fileID: 0}
    - target: {fileID: 5229386342382851936, guid: b3a02d1d2e30835499c009cb454f7515,
        type: 3}
      propertyPath: m_Points.m_Paths.Array.data[0].Array.data[49].y
      value: 1.1899999
      objectReference: {fileID: 0}
    - target: {fileID: 5229386342382851936, guid: b3a02d1d2e30835499c009cb454f7515,
        type: 3}
      propertyPath: m_Points.m_Paths.Array.data[0].Array.data[50].x
      value: -0.71
      objectReference: {fileID: 0}
    - target: {fileID: 5229386342382851936, guid: b3a02d1d2e30835499c009cb454f7515,
        type: 3}
      propertyPath: m_Points.m_Paths.Array.data[0].Array.data[50].y
      value: 1.02
      objectReference: {fileID: 0}
    - target: {fileID: 5229386342382851936, guid: b3a02d1d2e30835499c009cb454f7515,
        type: 3}
      propertyPath: m_Points.m_Paths.Array.data[0].Array.data[51].x
      value: -0.78999996
      objectReference: {fileID: 0}
    - target: {fileID: 5229386342382851936, guid: b3a02d1d2e30835499c009cb454f7515,
        type: 3}
      propertyPath: m_Points.m_Paths.Array.data[0].Array.data[51].y
      value: 0.93
      objectReference: {fileID: 0}
    - target: {fileID: 5229386342382851936, guid: b3a02d1d2e30835499c009cb454f7515,
        type: 3}
      propertyPath: m_Points.m_Paths.Array.data[0].Array.data[52].x
      value: -0.89
      objectReference: {fileID: 0}
    - target: {fileID: 5229386342382851936, guid: b3a02d1d2e30835499c009cb454f7515,
        type: 3}
      propertyPath: m_Points.m_Paths.Array.data[0].Array.data[52].y
      value: 1.02
      objectReference: {fileID: 0}
    - target: {fileID: 5229386342382851936, guid: b3a02d1d2e30835499c009cb454f7515,
        type: 3}
      propertyPath: m_Points.m_Paths.Array.data[0].Array.data[53].x
      value: -0.96
      objectReference: {fileID: 0}
    - target: {fileID: 5229386342382851936, guid: b3a02d1d2e30835499c009cb454f7515,
        type: 3}
      propertyPath: m_Points.m_Paths.Array.data[0].Array.data[53].y
      value: 1
      objectReference: {fileID: 0}
    - target: {fileID: 5229386342382851936, guid: b3a02d1d2e30835499c009cb454f7515,
        type: 3}
      propertyPath: m_Points.m_Paths.Array.data[0].Array.data[54].x
      value: -0.89
      objectReference: {fileID: 0}
    - target: {fileID: 5229386342382851936, guid: b3a02d1d2e30835499c009cb454f7515,
        type: 3}
      propertyPath: m_Points.m_Paths.Array.data[0].Array.data[54].y
      value: 0.83
      objectReference: {fileID: 0}
    - target: {fileID: 5229386342382851936, guid: b3a02d1d2e30835499c009cb454f7515,
        type: 3}
      propertyPath: m_Points.m_Paths.Array.data[0].Array.data[55].x
      value: -0.9
      objectReference: {fileID: 0}
    - target: {fileID: 5229386342382851936, guid: b3a02d1d2e30835499c009cb454f7515,
        type: 3}
      propertyPath: m_Points.m_Paths.Array.data[0].Array.data[55].y
      value: 0.7
      objectReference: {fileID: 0}
    - target: {fileID: 5229386342382851936, guid: b3a02d1d2e30835499c009cb454f7515,
        type: 3}
      propertyPath: m_Points.m_Paths.Array.data[0].Array.data[56].x
      value: -1.03
      objectReference: {fileID: 0}
    - target: {fileID: 5229386342382851936, guid: b3a02d1d2e30835499c009cb454f7515,
        type: 3}
      propertyPath: m_Points.m_Paths.Array.data[0].Array.data[56].y
      value: 0.77
      objectReference: {fileID: 0}
    - target: {fileID: 5229386342382851936, guid: b3a02d1d2e30835499c009cb454f7515,
        type: 3}
      propertyPath: m_Points.m_Paths.Array.data[0].Array.data[57].x
      value: -1.0699999
      objectReference: {fileID: 0}
    - target: {fileID: 5229386342382851936, guid: b3a02d1d2e30835499c009cb454f7515,
        type: 3}
      propertyPath: m_Points.m_Paths.Array.data[0].Array.data[57].y
      value: 0.72999996
      objectReference: {fileID: 0}
    - target: {fileID: 5229386342382851936, guid: b3a02d1d2e30835499c009cb454f7515,
        type: 3}
      propertyPath: m_Points.m_Paths.Array.data[0].Array.data[58].x
      value: -1
      objectReference: {fileID: 0}
    - target: {fileID: 5229386342382851936, guid: b3a02d1d2e30835499c009cb454f7515,
        type: 3}
      propertyPath: m_Points.m_Paths.Array.data[0].Array.data[58].y
      value: 0.58
      objectReference: {fileID: 0}
    - target: {fileID: 5229386342382851936, guid: b3a02d1d2e30835499c009cb454f7515,
        type: 3}
      propertyPath: m_Points.m_Paths.Array.data[0].Array.data[59].x
      value: -0.98999995
      objectReference: {fileID: 0}
    - target: {fileID: 5229386342382851936, guid: b3a02d1d2e30835499c009cb454f7515,
        type: 3}
      propertyPath: m_Points.m_Paths.Array.data[0].Array.data[59].y
      value: 0.38
      objectReference: {fileID: 0}
    - target: {fileID: 5229386342382851936, guid: b3a02d1d2e30835499c009cb454f7515,
        type: 3}
      propertyPath: m_Points.m_Paths.Array.data[0].Array.data[60].x
      value: -1.1
      objectReference: {fileID: 0}
    - target: {fileID: 5229386342382851936, guid: b3a02d1d2e30835499c009cb454f7515,
        type: 3}
      propertyPath: m_Points.m_Paths.Array.data[0].Array.data[60].y
      value: 0.37
      objectReference: {fileID: 0}
    - target: {fileID: 5229386342382851936, guid: b3a02d1d2e30835499c009cb454f7515,
        type: 3}
      propertyPath: m_Points.m_Paths.Array.data[0].Array.data[61].x
      value: -1.12
      objectReference: {fileID: 0}
    - target: {fileID: 5229386342382851936, guid: b3a02d1d2e30835499c009cb454f7515,
        type: 3}
      propertyPath: m_Points.m_Paths.Array.data[0].Array.data[61].y
      value: 0.34
      objectReference: {fileID: 0}
    - target: {fileID: 5229386342382851936, guid: b3a02d1d2e30835499c009cb454f7515,
        type: 3}
      propertyPath: m_Points.m_Paths.Array.data[0].Array.data[62].x
      value: -1.06
      objectReference: {fileID: 0}
    - target: {fileID: 5229386342382851936, guid: b3a02d1d2e30835499c009cb454f7515,
        type: 3}
      propertyPath: m_Points.m_Paths.Array.data[0].Array.data[62].y
      value: 0.04
      objectReference: {fileID: 0}
    - target: {fileID: 5229386342382851936, guid: b3a02d1d2e30835499c009cb454f7515,
        type: 3}
      propertyPath: m_Points.m_Paths.Array.data[0].Array.data[63].x
      value: -1.1999999
      objectReference: {fileID: 0}
    - target: {fileID: 5229386342382851936, guid: b3a02d1d2e30835499c009cb454f7515,
        type: 3}
      propertyPath: m_Points.m_Paths.Array.data[0].Array.data[63].y
      value: -0.049999997
      objectReference: {fileID: 0}
    - target: {fileID: 5229386342382851936, guid: b3a02d1d2e30835499c009cb454f7515,
        type: 3}
      propertyPath: m_Points.m_Paths.Array.data[0].Array.data[64].x
      value: -1.1999999
      objectReference: {fileID: 0}
    - target: {fileID: 5229386342382851936, guid: b3a02d1d2e30835499c009cb454f7515,
        type: 3}
      propertyPath: m_Points.m_Paths.Array.data[0].Array.data[64].y
      value: -0.089999996
      objectReference: {fileID: 0}
    - target: {fileID: 5229386342382851936, guid: b3a02d1d2e30835499c009cb454f7515,
        type: 3}
      propertyPath: m_Points.m_Paths.Array.data[0].Array.data[65].x
      value: -1.16
      objectReference: {fileID: 0}
    - target: {fileID: 5229386342382851936, guid: b3a02d1d2e30835499c009cb454f7515,
        type: 3}
      propertyPath: m_Points.m_Paths.Array.data[0].Array.data[65].y
      value: -0.14
      objectReference: {fileID: 0}
    - target: {fileID: 5229386342382851936, guid: b3a02d1d2e30835499c009cb454f7515,
        type: 3}
      propertyPath: m_Points.m_Paths.Array.data[0].Array.data[66].x
      value: -1.09
      objectReference: {fileID: 0}
    - target: {fileID: 5229386342382851936, guid: b3a02d1d2e30835499c009cb454f7515,
        type: 3}
      propertyPath: m_Points.m_Paths.Array.data[0].Array.data[66].y
      value: -0.17
      objectReference: {fileID: 0}
    - target: {fileID: 5229386342382851936, guid: b3a02d1d2e30835499c009cb454f7515,
        type: 3}
      propertyPath: m_Points.m_Paths.Array.data[0].Array.data[67].x
      value: -1.0799999
      objectReference: {fileID: 0}
    - target: {fileID: 5229386342382851936, guid: b3a02d1d2e30835499c009cb454f7515,
        type: 3}
      propertyPath: m_Points.m_Paths.Array.data[0].Array.data[67].y
      value: -0.53
      objectReference: {fileID: 0}
    - target: {fileID: 5229386342382851936, guid: b3a02d1d2e30835499c009cb454f7515,
        type: 3}
      propertyPath: m_Points.m_Paths.Array.data[0].Array.data[68].x
      value: -1.0699999
      objectReference: {fileID: 0}
    - target: {fileID: 5229386342382851936, guid: b3a02d1d2e30835499c009cb454f7515,
        type: 3}
      propertyPath: m_Points.m_Paths.Array.data[0].Array.data[68].y
      value: -0.68
      objectReference: {fileID: 0}
    - target: {fileID: 5229386342382851936, guid: b3a02d1d2e30835499c009cb454f7515,
        type: 3}
      propertyPath: m_Points.m_Paths.Array.data[0].Array.data[69].x
      value: -1.05
      objectReference: {fileID: 0}
    - target: {fileID: 5229386342382851936, guid: b3a02d1d2e30835499c009cb454f7515,
        type: 3}
      propertyPath: m_Points.m_Paths.Array.data[0].Array.data[69].y
      value: -0.96999997
      objectReference: {fileID: 0}
    - target: {fileID: 5229386342382851936, guid: b3a02d1d2e30835499c009cb454f7515,
        type: 3}
      propertyPath: m_Points.m_Paths.Array.data[0].Array.data[70].x
      value: -0.91999996
      objectReference: {fileID: 0}
    - target: {fileID: 5229386342382851936, guid: b3a02d1d2e30835499c009cb454f7515,
        type: 3}
      propertyPath: m_Points.m_Paths.Array.data[0].Array.data[70].y
      value: -1.3299999
      objectReference: {fileID: 0}
    - target: {fileID: 5229386342382851936, guid: b3a02d1d2e30835499c009cb454f7515,
        type: 3}
      propertyPath: m_Points.m_Paths.Array.data[0].Array.data[71].x
      value: -0.83
      objectReference: {fileID: 0}
    - target: {fileID: 5229386342382851936, guid: b3a02d1d2e30835499c009cb454f7515,
        type: 3}
      propertyPath: m_Points.m_Paths.Array.data[0].Array.data[71].y
      value: -1.4599999
      objectReference: {fileID: 0}
    - target: {fileID: 5229386342382851936, guid: b3a02d1d2e30835499c009cb454f7515,
        type: 3}
      propertyPath: m_Points.m_Paths.Array.data[0].Array.data[72].x
      value: -0.71
      objectReference: {fileID: 0}
    - target: {fileID: 5229386342382851936, guid: b3a02d1d2e30835499c009cb454f7515,
        type: 3}
      propertyPath: m_Points.m_Paths.Array.data[0].Array.data[72].y
      value: -1.5899999
      objectReference: {fileID: 0}
    - target: {fileID: 5229386342382851936, guid: b3a02d1d2e30835499c009cb454f7515,
        type: 3}
      propertyPath: m_Points.m_Paths.Array.data[0].Array.data[73].x
      value: -0.59999996
      objectReference: {fileID: 0}
    - target: {fileID: 5229386342382851936, guid: b3a02d1d2e30835499c009cb454f7515,
        type: 3}
      propertyPath: m_Points.m_Paths.Array.data[0].Array.data[73].y
      value: -1.68
      objectReference: {fileID: 0}
    - target: {fileID: 5229386342382851936, guid: b3a02d1d2e30835499c009cb454f7515,
        type: 3}
      propertyPath: m_Points.m_Paths.Array.data[0].Array.data[74].x
      value: -0.37
      objectReference: {fileID: 0}
    - target: {fileID: 5229386342382851936, guid: b3a02d1d2e30835499c009cb454f7515,
        type: 3}
      propertyPath: m_Points.m_Paths.Array.data[0].Array.data[74].y
      value: -1.78
      objectReference: {fileID: 0}
    - target: {fileID: 5229386342382851936, guid: b3a02d1d2e30835499c009cb454f7515,
        type: 3}
      propertyPath: m_Points.m_Paths.Array.data[0].Array.data[75].x
      value: 0.32999998
      objectReference: {fileID: 0}
    - target: {fileID: 5229386342382851936, guid: b3a02d1d2e30835499c009cb454f7515,
        type: 3}
      propertyPath: m_Points.m_Paths.Array.data[0].Array.data[75].y
      value: -1.78
      objectReference: {fileID: 0}
    - target: {fileID: 5229386342382851936, guid: b3a02d1d2e30835499c009cb454f7515,
        type: 3}
      propertyPath: m_Points.m_Paths.Array.data[0].Array.data[76].x
      value: 0.45999998
      objectReference: {fileID: 0}
    - target: {fileID: 5229386342382851936, guid: b3a02d1d2e30835499c009cb454f7515,
        type: 3}
      propertyPath: m_Points.m_Paths.Array.data[0].Array.data[76].y
      value: -1.76
      objectReference: {fileID: 0}
    - target: {fileID: 5229386342382851936, guid: b3a02d1d2e30835499c009cb454f7515,
        type: 3}
      propertyPath: m_Points.m_Paths.Array.data[0].Array.data[77].x
      value: 0.74
      objectReference: {fileID: 0}
    - target: {fileID: 5229386342382851936, guid: b3a02d1d2e30835499c009cb454f7515,
        type: 3}
      propertyPath: m_Points.m_Paths.Array.data[0].Array.data[77].y
      value: -1.62
      objectReference: {fileID: 0}
    - target: {fileID: 5229386342382851936, guid: b3a02d1d2e30835499c009cb454f7515,
        type: 3}
      propertyPath: m_Points.m_Paths.Array.data[0].Array.data[78].x
      value: 0.97999996
      objectReference: {fileID: 0}
    - target: {fileID: 5229386342382851936, guid: b3a02d1d2e30835499c009cb454f7515,
        type: 3}
      propertyPath: m_Points.m_Paths.Array.data[0].Array.data[78].y
      value: -1.3399999
      objectReference: {fileID: 0}
    m_RemovedComponents: []
  m_SourcePrefab: {fileID: 100100000, guid: b3a02d1d2e30835499c009cb454f7515, type: 3}
--- !u!1001 &2069026117
PrefabInstance:
  m_ObjectHideFlags: 0
  serializedVersion: 2
  m_Modification:
    m_TransformParent: {fileID: 0}
    m_Modifications:
    - target: {fileID: 6774632706815460487, guid: 44fe3f75b6cd36e4e8467e69d9e4677d,
        type: 3}
      propertyPath: m_LocalPosition.x
      value: 0
      objectReference: {fileID: 0}
    - target: {fileID: 6774632706815460487, guid: 44fe3f75b6cd36e4e8467e69d9e4677d,
        type: 3}
      propertyPath: m_LocalPosition.y
      value: 0
      objectReference: {fileID: 0}
    - target: {fileID: 6774632706815460487, guid: 44fe3f75b6cd36e4e8467e69d9e4677d,
        type: 3}
      propertyPath: m_LocalPosition.z
      value: -10
      objectReference: {fileID: 0}
    - target: {fileID: 6774632706815460487, guid: 44fe3f75b6cd36e4e8467e69d9e4677d,
        type: 3}
      propertyPath: m_LocalRotation.x
      value: 0
      objectReference: {fileID: 0}
    - target: {fileID: 6774632706815460487, guid: 44fe3f75b6cd36e4e8467e69d9e4677d,
        type: 3}
      propertyPath: m_LocalRotation.y
      value: 0
      objectReference: {fileID: 0}
    - target: {fileID: 6774632706815460487, guid: 44fe3f75b6cd36e4e8467e69d9e4677d,
        type: 3}
      propertyPath: m_LocalRotation.z
      value: 0
      objectReference: {fileID: 0}
    - target: {fileID: 6774632706815460487, guid: 44fe3f75b6cd36e4e8467e69d9e4677d,
        type: 3}
      propertyPath: m_LocalRotation.w
      value: 1
      objectReference: {fileID: 0}
    - target: {fileID: 6774632706815460487, guid: 44fe3f75b6cd36e4e8467e69d9e4677d,
        type: 3}
      propertyPath: m_RootOrder
      value: 0
      objectReference: {fileID: 0}
    - target: {fileID: 6774632706815460487, guid: 44fe3f75b6cd36e4e8467e69d9e4677d,
        type: 3}
      propertyPath: m_LocalEulerAnglesHint.x
      value: 0
      objectReference: {fileID: 0}
    - target: {fileID: 6774632706815460487, guid: 44fe3f75b6cd36e4e8467e69d9e4677d,
        type: 3}
      propertyPath: m_LocalEulerAnglesHint.y
      value: 0
      objectReference: {fileID: 0}
    - target: {fileID: 6774632706815460487, guid: 44fe3f75b6cd36e4e8467e69d9e4677d,
        type: 3}
      propertyPath: m_LocalEulerAnglesHint.z
      value: 0
      objectReference: {fileID: 0}
    - target: {fileID: 6774632706815460490, guid: 44fe3f75b6cd36e4e8467e69d9e4677d,
        type: 3}
      propertyPath: m_Name
      value: Main Camera
      objectReference: {fileID: 0}
    m_RemovedComponents: []
  m_SourcePrefab: {fileID: 100100000, guid: 44fe3f75b6cd36e4e8467e69d9e4677d, type: 3}
--- !u!1001 &2130439680503745307
PrefabInstance:
  m_ObjectHideFlags: 0
  serializedVersion: 2
  m_Modification:
    m_TransformParent: {fileID: 0}
    m_Modifications:
    - target: {fileID: 2130439681782209753, guid: b3a02d1d2e30835499c009cb454f7515,
        type: 3}
      propertyPath: m_Name
      value: Cactus
      objectReference: {fileID: 0}
    - target: {fileID: 2130439681782209759, guid: b3a02d1d2e30835499c009cb454f7515,
        type: 3}
      propertyPath: m_LocalPosition.x
      value: 2.37
      objectReference: {fileID: 0}
    - target: {fileID: 2130439681782209759, guid: b3a02d1d2e30835499c009cb454f7515,
        type: 3}
      propertyPath: m_LocalPosition.y
      value: -0.81
      objectReference: {fileID: 0}
    - target: {fileID: 2130439681782209759, guid: b3a02d1d2e30835499c009cb454f7515,
        type: 3}
      propertyPath: m_LocalPosition.z
      value: -1
      objectReference: {fileID: 0}
    - target: {fileID: 2130439681782209759, guid: b3a02d1d2e30835499c009cb454f7515,
        type: 3}
      propertyPath: m_LocalRotation.x
      value: 0
      objectReference: {fileID: 0}
    - target: {fileID: 2130439681782209759, guid: b3a02d1d2e30835499c009cb454f7515,
        type: 3}
      propertyPath: m_LocalRotation.y
      value: 0
      objectReference: {fileID: 0}
    - target: {fileID: 2130439681782209759, guid: b3a02d1d2e30835499c009cb454f7515,
        type: 3}
      propertyPath: m_LocalRotation.z
      value: 0
      objectReference: {fileID: 0}
    - target: {fileID: 2130439681782209759, guid: b3a02d1d2e30835499c009cb454f7515,
        type: 3}
      propertyPath: m_LocalRotation.w
      value: 1
      objectReference: {fileID: 0}
    - target: {fileID: 2130439681782209759, guid: b3a02d1d2e30835499c009cb454f7515,
        type: 3}
      propertyPath: m_RootOrder
      value: 6
      objectReference: {fileID: 0}
    - target: {fileID: 2130439681782209759, guid: b3a02d1d2e30835499c009cb454f7515,
        type: 3}
      propertyPath: m_LocalEulerAnglesHint.x
      value: 0
      objectReference: {fileID: 0}
    - target: {fileID: 2130439681782209759, guid: b3a02d1d2e30835499c009cb454f7515,
        type: 3}
      propertyPath: m_LocalEulerAnglesHint.y
      value: 0
      objectReference: {fileID: 0}
    - target: {fileID: 2130439681782209759, guid: b3a02d1d2e30835499c009cb454f7515,
        type: 3}
      propertyPath: m_LocalEulerAnglesHint.z
      value: 0
      objectReference: {fileID: 0}
    - target: {fileID: 2130439681782209759, guid: b3a02d1d2e30835499c009cb454f7515,
        type: 3}
      propertyPath: m_LocalScale.x
      value: 0.8
      objectReference: {fileID: 0}
    - target: {fileID: 2130439681782209759, guid: b3a02d1d2e30835499c009cb454f7515,
        type: 3}
      propertyPath: m_LocalScale.y
      value: 0.8
      objectReference: {fileID: 0}
    m_RemovedComponents: []
  m_SourcePrefab: {fileID: 100100000, guid: b3a02d1d2e30835499c009cb454f7515, type: 3}
