%YAML 1.1
%TAG !u! tag:unity3d.com,2011:
--- !u!29 &1
OcclusionCullingSettings:
  m_ObjectHideFlags: 0
  serializedVersion: 2
  m_OcclusionBakeSettings:
    smallestOccluder: 5
    smallestHole: 0.25
    backfaceThreshold: 100
  m_SceneGUID: 00000000000000000000000000000000
  m_OcclusionCullingData: {fileID: 0}
--- !u!104 &2
RenderSettings:
  m_ObjectHideFlags: 0
  serializedVersion: 9
  m_Fog: 0
  m_FogColor: {r: 0.5, g: 0.5, b: 0.5, a: 1}
  m_FogMode: 3
  m_FogDensity: 0.01
  m_LinearFogStart: 0
  m_LinearFogEnd: 300
  m_AmbientSkyColor: {r: 0.212, g: 0.227, b: 0.259, a: 1}
  m_AmbientEquatorColor: {r: 0.114, g: 0.125, b: 0.133, a: 1}
  m_AmbientGroundColor: {r: 0.047, g: 0.043, b: 0.035, a: 1}
  m_AmbientIntensity: 1
  m_AmbientMode: 3
  m_SubtractiveShadowColor: {r: 0.42, g: 0.478, b: 0.627, a: 1}
  m_SkyboxMaterial: {fileID: 0}
  m_HaloStrength: 0.5
  m_FlareStrength: 1
  m_FlareFadeSpeed: 3
  m_HaloTexture: {fileID: 0}
  m_SpotCookie: {fileID: 10001, guid: 0000000000000000e000000000000000, type: 0}
  m_DefaultReflectionMode: 0
  m_DefaultReflectionResolution: 128
  m_ReflectionBounces: 1
  m_ReflectionIntensity: 1
  m_CustomReflection: {fileID: 0}
  m_Sun: {fileID: 0}
  m_IndirectSpecularColor: {r: 0, g: 0, b: 0, a: 1}
  m_UseRadianceAmbientProbe: 0
--- !u!157 &3
LightmapSettings:
  m_ObjectHideFlags: 0
  serializedVersion: 11
  m_GIWorkflowMode: 1
  m_GISettings:
    serializedVersion: 2
    m_BounceScale: 1
    m_IndirectOutputScale: 1
    m_AlbedoBoost: 1
    m_EnvironmentLightingMode: 0
    m_EnableBakedLightmaps: 0
    m_EnableRealtimeLightmaps: 0
  m_LightmapEditorSettings:
    serializedVersion: 12
    m_Resolution: 2
    m_BakeResolution: 40
    m_AtlasSize: 1024
    m_AO: 0
    m_AOMaxDistance: 1
    m_CompAOExponent: 1
    m_CompAOExponentDirect: 0
    m_ExtractAmbientOcclusion: 0
    m_Padding: 2
    m_LightmapParameters: {fileID: 0}
    m_LightmapsBakeMode: 1
    m_TextureCompression: 1
    m_FinalGather: 0
    m_FinalGatherFiltering: 1
    m_FinalGatherRayCount: 256
    m_ReflectionCompression: 2
    m_MixedBakeMode: 2
    m_BakeBackend: 1
    m_PVRSampling: 1
    m_PVRDirectSampleCount: 32
    m_PVRSampleCount: 512
    m_PVRBounces: 2
    m_PVREnvironmentSampleCount: 256
    m_PVREnvironmentReferencePointCount: 2048
    m_PVRFilteringMode: 1
    m_PVRDenoiserTypeDirect: 1
    m_PVRDenoiserTypeIndirect: 1
    m_PVRDenoiserTypeAO: 1
    m_PVRFilterTypeDirect: 0
    m_PVRFilterTypeIndirect: 0
    m_PVRFilterTypeAO: 0
    m_PVREnvironmentMIS: 1
    m_PVRCulling: 1
    m_PVRFilteringGaussRadiusDirect: 1
    m_PVRFilteringGaussRadiusIndirect: 5
    m_PVRFilteringGaussRadiusAO: 2
    m_PVRFilteringAtrousPositionSigmaDirect: 0.5
    m_PVRFilteringAtrousPositionSigmaIndirect: 2
    m_PVRFilteringAtrousPositionSigmaAO: 1
    m_ExportTrainingData: 0
    m_TrainingDataDestination: TrainingData
    m_LightProbeSampleCountMultiplier: 4
  m_LightingDataAsset: {fileID: 0}
  m_UseShadowmask: 1
--- !u!196 &4
NavMeshSettings:
  serializedVersion: 2
  m_ObjectHideFlags: 0
  m_BuildSettings:
    serializedVersion: 2
    agentTypeID: 0
    agentRadius: 0.5
    agentHeight: 2
    agentSlope: 45
    agentClimb: 0.4
    ledgeDropHeight: 0
    maxJumpAcrossDistance: 0
    minRegionArea: 2
    manualCellSize: 0
    cellSize: 0.16666667
    manualTileSize: 0
    tileSize: 256
    accuratePlacement: 0
    debug:
      m_Flags: 0
  m_NavMeshData: {fileID: 0}
--- !u!1001 &467243741
PrefabInstance:
  m_ObjectHideFlags: 0
  serializedVersion: 2
  m_Modification:
    m_TransformParent: {fileID: 0}
    m_Modifications:
    - target: {fileID: 1382033100343188808, guid: f04f986441ae8a24bb818d3b3c9b3bfe,
        type: 3}
      propertyPath: m_Name
      value: tree
      objectReference: {fileID: 0}
    - target: {fileID: 6728886881141943009, guid: f04f986441ae8a24bb818d3b3c9b3bfe,
        type: 3}
      propertyPath: m_LocalPosition.x
      value: 5.42
      objectReference: {fileID: 0}
    - target: {fileID: 6728886881141943009, guid: f04f986441ae8a24bb818d3b3c9b3bfe,
        type: 3}
      propertyPath: m_LocalPosition.y
      value: 1.6182535
      objectReference: {fileID: 0}
    - target: {fileID: 6728886881141943009, guid: f04f986441ae8a24bb818d3b3c9b3bfe,
        type: 3}
      propertyPath: m_LocalPosition.z
      value: 0
      objectReference: {fileID: 0}
    - target: {fileID: 6728886881141943009, guid: f04f986441ae8a24bb818d3b3c9b3bfe,
        type: 3}
      propertyPath: m_LocalRotation.x
      value: 0
      objectReference: {fileID: 0}
    - target: {fileID: 6728886881141943009, guid: f04f986441ae8a24bb818d3b3c9b3bfe,
        type: 3}
      propertyPath: m_LocalRotation.y
      value: 1
      objectReference: {fileID: 0}
    - target: {fileID: 6728886881141943009, guid: f04f986441ae8a24bb818d3b3c9b3bfe,
        type: 3}
      propertyPath: m_LocalRotation.z
      value: 0
      objectReference: {fileID: 0}
    - target: {fileID: 6728886881141943009, guid: f04f986441ae8a24bb818d3b3c9b3bfe,
        type: 3}
      propertyPath: m_LocalRotation.w
      value: 0
      objectReference: {fileID: 0}
    - target: {fileID: 6728886881141943009, guid: f04f986441ae8a24bb818d3b3c9b3bfe,
        type: 3}
      propertyPath: m_RootOrder
      value: 6
      objectReference: {fileID: 0}
    - target: {fileID: 6728886881141943009, guid: f04f986441ae8a24bb818d3b3c9b3bfe,
        type: 3}
      propertyPath: m_LocalEulerAnglesHint.x
      value: 0
      objectReference: {fileID: 0}
    - target: {fileID: 6728886881141943009, guid: f04f986441ae8a24bb818d3b3c9b3bfe,
        type: 3}
      propertyPath: m_LocalEulerAnglesHint.y
      value: 180
      objectReference: {fileID: 0}
    - target: {fileID: 6728886881141943009, guid: f04f986441ae8a24bb818d3b3c9b3bfe,
        type: 3}
      propertyPath: m_LocalEulerAnglesHint.z
      value: 0
      objectReference: {fileID: 0}
    - target: {fileID: 6930860702245433222, guid: f04f986441ae8a24bb818d3b3c9b3bfe,
        type: 3}
      propertyPath: m_SortingOrder
      value: 0
      objectReference: {fileID: 0}
    m_RemovedComponents: []
  m_SourcePrefab: {fileID: 100100000, guid: f04f986441ae8a24bb818d3b3c9b3bfe, type: 3}
--- !u!1001 &489052359
PrefabInstance:
  m_ObjectHideFlags: 0
  serializedVersion: 2
  m_Modification:
    m_TransformParent: {fileID: 0}
    m_Modifications:
    - target: {fileID: 4191727729088084861, guid: fb4c04e71a5b6104e9cb9535b73ac384,
        type: 3}
      propertyPath: m_LocalPosition.x
      value: 5.19
      objectReference: {fileID: 0}
    - target: {fileID: 4191727729088084861, guid: fb4c04e71a5b6104e9cb9535b73ac384,
        type: 3}
      propertyPath: m_LocalPosition.y
      value: -2.28
      objectReference: {fileID: 0}
    - target: {fileID: 4191727729088084861, guid: fb4c04e71a5b6104e9cb9535b73ac384,
        type: 3}
      propertyPath: m_LocalPosition.z
      value: -1
      objectReference: {fileID: 0}
    - target: {fileID: 4191727729088084861, guid: fb4c04e71a5b6104e9cb9535b73ac384,
        type: 3}
      propertyPath: m_LocalRotation.x
      value: 0
      objectReference: {fileID: 0}
    - target: {fileID: 4191727729088084861, guid: fb4c04e71a5b6104e9cb9535b73ac384,
        type: 3}
      propertyPath: m_LocalRotation.y
      value: 0
      objectReference: {fileID: 0}
    - target: {fileID: 4191727729088084861, guid: fb4c04e71a5b6104e9cb9535b73ac384,
        type: 3}
      propertyPath: m_LocalRotation.z
      value: 0
      objectReference: {fileID: 0}
    - target: {fileID: 4191727729088084861, guid: fb4c04e71a5b6104e9cb9535b73ac384,
        type: 3}
      propertyPath: m_LocalRotation.w
      value: 1
      objectReference: {fileID: 0}
    - target: {fileID: 4191727729088084861, guid: fb4c04e71a5b6104e9cb9535b73ac384,
        type: 3}
      propertyPath: m_RootOrder
      value: 4
      objectReference: {fileID: 0}
    - target: {fileID: 4191727729088084861, guid: fb4c04e71a5b6104e9cb9535b73ac384,
        type: 3}
      propertyPath: m_LocalEulerAnglesHint.x
      value: 0
      objectReference: {fileID: 0}
    - target: {fileID: 4191727729088084861, guid: fb4c04e71a5b6104e9cb9535b73ac384,
        type: 3}
      propertyPath: m_LocalEulerAnglesHint.y
      value: 0
      objectReference: {fileID: 0}
    - target: {fileID: 4191727729088084861, guid: fb4c04e71a5b6104e9cb9535b73ac384,
        type: 3}
      propertyPath: m_LocalEulerAnglesHint.z
      value: 0
      objectReference: {fileID: 0}
    - target: {fileID: 4191727729088084861, guid: fb4c04e71a5b6104e9cb9535b73ac384,
        type: 3}
      propertyPath: m_LocalScale.x
      value: 0.6
      objectReference: {fileID: 0}
    - target: {fileID: 4191727729088084861, guid: fb4c04e71a5b6104e9cb9535b73ac384,
        type: 3}
      propertyPath: m_LocalScale.y
      value: 0.6
      objectReference: {fileID: 0}
    - target: {fileID: 4191727729088084863, guid: fb4c04e71a5b6104e9cb9535b73ac384,
        type: 3}
      propertyPath: m_Name
      value: Cheese
      objectReference: {fileID: 0}
    m_RemovedComponents: []
  m_SourcePrefab: {fileID: 100100000, guid: fb4c04e71a5b6104e9cb9535b73ac384, type: 3}
--- !u!1001 &498216484
PrefabInstance:
  m_ObjectHideFlags: 0
  serializedVersion: 2
  m_Modification:
    m_TransformParent: {fileID: 0}
    m_Modifications:
    - target: {fileID: 1342782541886660956, guid: f5e0736fff46d564287eba8bae2518ef,
        type: 3}
      propertyPath: m_SortingOrder
      value: 1
      objectReference: {fileID: 0}
    - target: {fileID: 2732299897777255766, guid: f5e0736fff46d564287eba8bae2518ef,
        type: 3}
      propertyPath: m_Name
      value: GrassFull
      objectReference: {fileID: 0}
    - target: {fileID: 3055392345569029394, guid: f5e0736fff46d564287eba8bae2518ef,
        type: 3}
      propertyPath: m_LocalPosition.x
      value: 0.05
      objectReference: {fileID: 0}
    - target: {fileID: 3055392345569029394, guid: f5e0736fff46d564287eba8bae2518ef,
        type: 3}
      propertyPath: m_LocalPosition.y
      value: -3.57
      objectReference: {fileID: 0}
    - target: {fileID: 3055392345569029394, guid: f5e0736fff46d564287eba8bae2518ef,
        type: 3}
      propertyPath: m_LocalPosition.z
      value: 0
      objectReference: {fileID: 0}
    - target: {fileID: 3055392345569029394, guid: f5e0736fff46d564287eba8bae2518ef,
        type: 3}
      propertyPath: m_LocalRotation.x
      value: 0
      objectReference: {fileID: 0}
    - target: {fileID: 3055392345569029394, guid: f5e0736fff46d564287eba8bae2518ef,
        type: 3}
      propertyPath: m_LocalRotation.y
      value: 0
      objectReference: {fileID: 0}
    - target: {fileID: 3055392345569029394, guid: f5e0736fff46d564287eba8bae2518ef,
        type: 3}
      propertyPath: m_LocalRotation.z
      value: 0
      objectReference: {fileID: 0}
    - target: {fileID: 3055392345569029394, guid: f5e0736fff46d564287eba8bae2518ef,
        type: 3}
      propertyPath: m_LocalRotation.w
      value: 1
      objectReference: {fileID: 0}
    - target: {fileID: 3055392345569029394, guid: f5e0736fff46d564287eba8bae2518ef,
        type: 3}
      propertyPath: m_RootOrder
      value: 8
      objectReference: {fileID: 0}
    - target: {fileID: 3055392345569029394, guid: f5e0736fff46d564287eba8bae2518ef,
        type: 3}
      propertyPath: m_LocalEulerAnglesHint.x
      value: 0
      objectReference: {fileID: 0}
    - target: {fileID: 3055392345569029394, guid: f5e0736fff46d564287eba8bae2518ef,
        type: 3}
      propertyPath: m_LocalEulerAnglesHint.y
      value: 0
      objectReference: {fileID: 0}
    - target: {fileID: 3055392345569029394, guid: f5e0736fff46d564287eba8bae2518ef,
        type: 3}
      propertyPath: m_LocalEulerAnglesHint.z
      value: 0
      objectReference: {fileID: 0}
    - target: {fileID: 3055392345569029394, guid: f5e0736fff46d564287eba8bae2518ef,
        type: 3}
      propertyPath: m_LocalScale.y
      value: 1
      objectReference: {fileID: 0}
    m_RemovedComponents: []
  m_SourcePrefab: {fileID: 100100000, guid: f5e0736fff46d564287eba8bae2518ef, type: 3}
--- !u!1001 &587605890
PrefabInstance:
  m_ObjectHideFlags: 0
  serializedVersion: 2
  m_Modification:
    m_TransformParent: {fileID: 0}
    m_Modifications:
    - target: {fileID: 434575275442622905, guid: 53369fea727c5d24ab423b782274f41f,
        type: 3}
      propertyPath: noOfItems
      value: 1
      objectReference: {fileID: 0}
    - target: {fileID: 7966239787764111442, guid: 53369fea727c5d24ab423b782274f41f,
        type: 3}
      propertyPath: m_Name
      value: bottomPanel
      objectReference: {fileID: 0}
    - target: {fileID: 7966239787764111444, guid: 53369fea727c5d24ab423b782274f41f,
        type: 3}
      propertyPath: m_LocalPosition.x
      value: 0
      objectReference: {fileID: 0}
    - target: {fileID: 7966239787764111444, guid: 53369fea727c5d24ab423b782274f41f,
        type: 3}
      propertyPath: m_LocalPosition.y
      value: -4
      objectReference: {fileID: 0}
    - target: {fileID: 7966239787764111444, guid: 53369fea727c5d24ab423b782274f41f,
        type: 3}
      propertyPath: m_LocalPosition.z
      value: 0
      objectReference: {fileID: 0}
    - target: {fileID: 7966239787764111444, guid: 53369fea727c5d24ab423b782274f41f,
        type: 3}
      propertyPath: m_LocalRotation.x
      value: 0
      objectReference: {fileID: 0}
    - target: {fileID: 7966239787764111444, guid: 53369fea727c5d24ab423b782274f41f,
        type: 3}
      propertyPath: m_LocalRotation.y
      value: 0
      objectReference: {fileID: 0}
    - target: {fileID: 7966239787764111444, guid: 53369fea727c5d24ab423b782274f41f,
        type: 3}
      propertyPath: m_LocalRotation.z
      value: 0
      objectReference: {fileID: 0}
    - target: {fileID: 7966239787764111444, guid: 53369fea727c5d24ab423b782274f41f,
        type: 3}
      propertyPath: m_LocalRotation.w
      value: 1
      objectReference: {fileID: 0}
    - target: {fileID: 7966239787764111444, guid: 53369fea727c5d24ab423b782274f41f,
        type: 3}
      propertyPath: m_RootOrder
      value: 3
      objectReference: {fileID: 0}
    - target: {fileID: 7966239787764111444, guid: 53369fea727c5d24ab423b782274f41f,
        type: 3}
      propertyPath: m_LocalEulerAnglesHint.x
      value: 0
      objectReference: {fileID: 0}
    - target: {fileID: 7966239787764111444, guid: 53369fea727c5d24ab423b782274f41f,
        type: 3}
      propertyPath: m_LocalEulerAnglesHint.y
      value: 0
      objectReference: {fileID: 0}
    - target: {fileID: 7966239787764111444, guid: 53369fea727c5d24ab423b782274f41f,
        type: 3}
      propertyPath: m_LocalEulerAnglesHint.z
      value: 0
      objectReference: {fileID: 0}
    m_RemovedComponents: []
  m_SourcePrefab: {fileID: 100100000, guid: 53369fea727c5d24ab423b782274f41f, type: 3}
--- !u!1001 &672665437
PrefabInstance:
  m_ObjectHideFlags: 0
  serializedVersion: 2
  m_Modification:
    m_TransformParent: {fileID: 0}
    m_Modifications:
    - target: {fileID: 2900885522290898561, guid: f710f29562c2a09448124ac7b5a036be,
        type: 3}
      propertyPath: timeTarget
      value: 15
      objectReference: {fileID: 0}
    - target: {fileID: 8945960662992305941, guid: f710f29562c2a09448124ac7b5a036be,
        type: 3}
      propertyPath: m_LocalPosition.x
      value: 0
      objectReference: {fileID: 0}
    - target: {fileID: 8945960662992305941, guid: f710f29562c2a09448124ac7b5a036be,
        type: 3}
      propertyPath: m_LocalPosition.y
      value: 4
      objectReference: {fileID: 0}
    - target: {fileID: 8945960662992305941, guid: f710f29562c2a09448124ac7b5a036be,
        type: 3}
      propertyPath: m_LocalPosition.z
      value: 0
      objectReference: {fileID: 0}
    - target: {fileID: 8945960662992305941, guid: f710f29562c2a09448124ac7b5a036be,
        type: 3}
      propertyPath: m_LocalRotation.x
      value: 0
      objectReference: {fileID: 0}
    - target: {fileID: 8945960662992305941, guid: f710f29562c2a09448124ac7b5a036be,
        type: 3}
      propertyPath: m_LocalRotation.y
      value: 0
      objectReference: {fileID: 0}
    - target: {fileID: 8945960662992305941, guid: f710f29562c2a09448124ac7b5a036be,
        type: 3}
      propertyPath: m_LocalRotation.z
      value: 0
      objectReference: {fileID: 0}
    - target: {fileID: 8945960662992305941, guid: f710f29562c2a09448124ac7b5a036be,
        type: 3}
      propertyPath: m_LocalRotation.w
      value: 1
      objectReference: {fileID: 0}
    - target: {fileID: 8945960662992305941, guid: f710f29562c2a09448124ac7b5a036be,
        type: 3}
      propertyPath: m_RootOrder
      value: 2
      objectReference: {fileID: 0}
    - target: {fileID: 8945960662992305941, guid: f710f29562c2a09448124ac7b5a036be,
        type: 3}
      propertyPath: m_LocalEulerAnglesHint.x
      value: 0
      objectReference: {fileID: 0}
    - target: {fileID: 8945960662992305941, guid: f710f29562c2a09448124ac7b5a036be,
        type: 3}
      propertyPath: m_LocalEulerAnglesHint.y
      value: 0
      objectReference: {fileID: 0}
    - target: {fileID: 8945960662992305941, guid: f710f29562c2a09448124ac7b5a036be,
        type: 3}
      propertyPath: m_LocalEulerAnglesHint.z
      value: 0
      objectReference: {fileID: 0}
    - target: {fileID: 8945960662992306155, guid: f710f29562c2a09448124ac7b5a036be,
        type: 3}
      propertyPath: m_Name
      value: topPanel
      objectReference: {fileID: 0}
    m_RemovedComponents: []
  m_SourcePrefab: {fileID: 100100000, guid: f710f29562c2a09448124ac7b5a036be, type: 3}
--- !u!1001 &922277316
PrefabInstance:
  m_ObjectHideFlags: 0
  serializedVersion: 2
  m_Modification:
    m_TransformParent: {fileID: 0}
    m_Modifications:
    - target: {fileID: -2543572514829428232, guid: 11bbc070a160dc94ca0db303301ab847,
        type: 3}
      propertyPath: tagCageHere
      value: 1
      objectReference: {fileID: 0}
    - target: {fileID: 7152363240828079128, guid: 11bbc070a160dc94ca0db303301ab847,
        type: 3}
      propertyPath: m_Name
      value: putItemHere1
      objectReference: {fileID: 0}
    - target: {fileID: 8339012770716016212, guid: 11bbc070a160dc94ca0db303301ab847,
        type: 3}
      propertyPath: m_Size.y
      value: 4.59
      objectReference: {fileID: 0}
    - target: {fileID: 8339012770716016212, guid: 11bbc070a160dc94ca0db303301ab847,
        type: 3}
      propertyPath: m_Size.x
      value: 4.37
      objectReference: {fileID: 0}
    - target: {fileID: 8339012770716016212, guid: 11bbc070a160dc94ca0db303301ab847,
        type: 3}
      propertyPath: m_IsTrigger
      value: 0
      objectReference: {fileID: 0}
    - target: {fileID: 8981828696667485791, guid: 11bbc070a160dc94ca0db303301ab847,
        type: 3}
      propertyPath: m_LocalPosition.x
      value: -1.83
      objectReference: {fileID: 0}
    - target: {fileID: 8981828696667485791, guid: 11bbc070a160dc94ca0db303301ab847,
        type: 3}
      propertyPath: m_LocalPosition.y
      value: 1.3
      objectReference: {fileID: 0}
    - target: {fileID: 8981828696667485791, guid: 11bbc070a160dc94ca0db303301ab847,
        type: 3}
      propertyPath: m_LocalPosition.z
      value: -1.6152344
      objectReference: {fileID: 0}
    - target: {fileID: 8981828696667485791, guid: 11bbc070a160dc94ca0db303301ab847,
        type: 3}
      propertyPath: m_LocalRotation.x
      value: 0
      objectReference: {fileID: 0}
    - target: {fileID: 8981828696667485791, guid: 11bbc070a160dc94ca0db303301ab847,
        type: 3}
      propertyPath: m_LocalRotation.y
      value: 0
      objectReference: {fileID: 0}
    - target: {fileID: 8981828696667485791, guid: 11bbc070a160dc94ca0db303301ab847,
        type: 3}
      propertyPath: m_LocalRotation.z
      value: 0
      objectReference: {fileID: 0}
    - target: {fileID: 8981828696667485791, guid: 11bbc070a160dc94ca0db303301ab847,
        type: 3}
      propertyPath: m_LocalRotation.w
      value: 1
      objectReference: {fileID: 0}
    - target: {fileID: 8981828696667485791, guid: 11bbc070a160dc94ca0db303301ab847,
        type: 3}
      propertyPath: m_RootOrder
      value: 5
      objectReference: {fileID: 0}
    - target: {fileID: 8981828696667485791, guid: 11bbc070a160dc94ca0db303301ab847,
        type: 3}
      propertyPath: m_LocalEulerAnglesHint.x
      value: 0
      objectReference: {fileID: 0}
    - target: {fileID: 8981828696667485791, guid: 11bbc070a160dc94ca0db303301ab847,
        type: 3}
      propertyPath: m_LocalEulerAnglesHint.y
      value: 0
      objectReference: {fileID: 0}
    - target: {fileID: 8981828696667485791, guid: 11bbc070a160dc94ca0db303301ab847,
        type: 3}
      propertyPath: m_LocalEulerAnglesHint.z
      value: 0
      objectReference: {fileID: 0}
    m_RemovedComponents: []
  m_SourcePrefab: {fileID: 100100000, guid: 11bbc070a160dc94ca0db303301ab847, type: 3}
--- !u!1001 &1044795230
PrefabInstance:
  m_ObjectHideFlags: 0
  serializedVersion: 2
  m_Modification:
    m_TransformParent: {fileID: 0}
    m_Modifications:
    - target: {fileID: 4503537330458239944, guid: 17f48d9bbcfc4424b8bb7cf93f8b053b,
        type: 3}
      propertyPath: m_Name
      value: Background
      objectReference: {fileID: 0}
    - target: {fileID: 4503537330458239946, guid: 17f48d9bbcfc4424b8bb7cf93f8b053b,
        type: 3}
      propertyPath: m_LocalPosition.x
      value: 0
      objectReference: {fileID: 0}
    - target: {fileID: 4503537330458239946, guid: 17f48d9bbcfc4424b8bb7cf93f8b053b,
        type: 3}
      propertyPath: m_LocalPosition.y
      value: 0
      objectReference: {fileID: 0}
    - target: {fileID: 4503537330458239946, guid: 17f48d9bbcfc4424b8bb7cf93f8b053b,
        type: 3}
      propertyPath: m_LocalPosition.z
      value: 0
      objectReference: {fileID: 0}
    - target: {fileID: 4503537330458239946, guid: 17f48d9bbcfc4424b8bb7cf93f8b053b,
        type: 3}
      propertyPath: m_LocalRotation.x
      value: 0
      objectReference: {fileID: 0}
    - target: {fileID: 4503537330458239946, guid: 17f48d9bbcfc4424b8bb7cf93f8b053b,
        type: 3}
      propertyPath: m_LocalRotation.y
      value: 0
      objectReference: {fileID: 0}
    - target: {fileID: 4503537330458239946, guid: 17f48d9bbcfc4424b8bb7cf93f8b053b,
        type: 3}
      propertyPath: m_LocalRotation.z
      value: 0
      objectReference: {fileID: 0}
    - target: {fileID: 4503537330458239946, guid: 17f48d9bbcfc4424b8bb7cf93f8b053b,
        type: 3}
      propertyPath: m_LocalRotation.w
      value: 1
      objectReference: {fileID: 0}
    - target: {fileID: 4503537330458239946, guid: 17f48d9bbcfc4424b8bb7cf93f8b053b,
        type: 3}
      propertyPath: m_RootOrder
      value: 1
      objectReference: {fileID: 0}
    - target: {fileID: 4503537330458239946, guid: 17f48d9bbcfc4424b8bb7cf93f8b053b,
        type: 3}
      propertyPath: m_LocalEulerAnglesHint.x
      value: 0
      objectReference: {fileID: 0}
    - target: {fileID: 4503537330458239946, guid: 17f48d9bbcfc4424b8bb7cf93f8b053b,
        type: 3}
      propertyPath: m_LocalEulerAnglesHint.y
      value: 0
      objectReference: {fileID: 0}
    - target: {fileID: 4503537330458239946, guid: 17f48d9bbcfc4424b8bb7cf93f8b053b,
        type: 3}
      propertyPath: m_LocalEulerAnglesHint.z
      value: 0
      objectReference: {fileID: 0}
    m_RemovedComponents: []
  m_SourcePrefab: {fileID: 100100000, guid: 17f48d9bbcfc4424b8bb7cf93f8b053b, type: 3}
--- !u!1001 &1641607842
PrefabInstance:
  m_ObjectHideFlags: 0
  serializedVersion: 2
  m_Modification:
    m_TransformParent: {fileID: 0}
    m_Modifications:
    - target: {fileID: 1382033100343188808, guid: f04f986441ae8a24bb818d3b3c9b3bfe,
        type: 3}
      propertyPath: m_Name
      value: tree (1)
      objectReference: {fileID: 0}
    - target: {fileID: 6728886881141943009, guid: f04f986441ae8a24bb818d3b3c9b3bfe,
        type: 3}
      propertyPath: m_LocalPosition.x
      value: -3.55
      objectReference: {fileID: 0}
    - target: {fileID: 6728886881141943009, guid: f04f986441ae8a24bb818d3b3c9b3bfe,
        type: 3}
      propertyPath: m_LocalPosition.y
      value: 2.23
      objectReference: {fileID: 0}
    - target: {fileID: 6728886881141943009, guid: f04f986441ae8a24bb818d3b3c9b3bfe,
        type: 3}
      propertyPath: m_LocalPosition.z
      value: 0
      objectReference: {fileID: 0}
    - target: {fileID: 6728886881141943009, guid: f04f986441ae8a24bb818d3b3c9b3bfe,
        type: 3}
      propertyPath: m_LocalRotation.x
      value: 0
      objectReference: {fileID: 0}
    - target: {fileID: 6728886881141943009, guid: f04f986441ae8a24bb818d3b3c9b3bfe,
        type: 3}
      propertyPath: m_LocalRotation.y
      value: 0
      objectReference: {fileID: 0}
    - target: {fileID: 6728886881141943009, guid: f04f986441ae8a24bb818d3b3c9b3bfe,
        type: 3}
      propertyPath: m_LocalRotation.z
      value: 0
      objectReference: {fileID: 0}
    - target: {fileID: 6728886881141943009, guid: f04f986441ae8a24bb818d3b3c9b3bfe,
        type: 3}
      propertyPath: m_LocalRotation.w
      value: 1
      objectReference: {fileID: 0}
    - target: {fileID: 6728886881141943009, guid: f04f986441ae8a24bb818d3b3c9b3bfe,
        type: 3}
      propertyPath: m_RootOrder
      value: 7
      objectReference: {fileID: 0}
    - target: {fileID: 6728886881141943009, guid: f04f986441ae8a24bb818d3b3c9b3bfe,
        type: 3}
      propertyPath: m_LocalEulerAnglesHint.x
      value: 0
      objectReference: {fileID: 0}
    - target: {fileID: 6728886881141943009, guid: f04f986441ae8a24bb818d3b3c9b3bfe,
        type: 3}
      propertyPath: m_LocalEulerAnglesHint.y
      value: 0
      objectReference: {fileID: 0}
    - target: {fileID: 6728886881141943009, guid: f04f986441ae8a24bb818d3b3c9b3bfe,
        type: 3}
      propertyPath: m_LocalEulerAnglesHint.z
      value: 0
      objectReference: {fileID: 0}
    - target: {fileID: 6930860702245433222, guid: f04f986441ae8a24bb818d3b3c9b3bfe,
        type: 3}
      propertyPath: m_SortingOrder
      value: 0
      objectReference: {fileID: 0}
    m_RemovedComponents:
    - {fileID: 8342725051222969193, guid: f04f986441ae8a24bb818d3b3c9b3bfe, type: 3}
  m_SourcePrefab: {fileID: 100100000, guid: f04f986441ae8a24bb818d3b3c9b3bfe, type: 3}
--- !u!1001 &2069026117
PrefabInstance:
  m_ObjectHideFlags: 0
  serializedVersion: 2
  m_Modification:
    m_TransformParent: {fileID: 0}
    m_Modifications:
    - target: {fileID: 6774632706815460487, guid: 44fe3f75b6cd36e4e8467e69d9e4677d,
        type: 3}
      propertyPath: m_LocalPosition.x
      value: 0
      objectReference: {fileID: 0}
    - target: {fileID: 6774632706815460487, guid: 44fe3f75b6cd36e4e8467e69d9e4677d,
        type: 3}
      propertyPath: m_LocalPosition.y
      value: 0
      objectReference: {fileID: 0}
    - target: {fileID: 6774632706815460487, guid: 44fe3f75b6cd36e4e8467e69d9e4677d,
        type: 3}
      propertyPath: m_LocalPosition.z
      value: -10
      objectReference: {fileID: 0}
    - target: {fileID: 6774632706815460487, guid: 44fe3f75b6cd36e4e8467e69d9e4677d,
        type: 3}
      propertyPath: m_LocalRotation.x
      value: 0
      objectReference: {fileID: 0}
    - target: {fileID: 6774632706815460487, guid: 44fe3f75b6cd36e4e8467e69d9e4677d,
        type: 3}
      propertyPath: m_LocalRotation.y
      value: 0
      objectReference: {fileID: 0}
    - target: {fileID: 6774632706815460487, guid: 44fe3f75b6cd36e4e8467e69d9e4677d,
        type: 3}
      propertyPath: m_LocalRotation.z
      value: 0
      objectReference: {fileID: 0}
    - target: {fileID: 6774632706815460487, guid: 44fe3f75b6cd36e4e8467e69d9e4677d,
        type: 3}
      propertyPath: m_LocalRotation.w
      value: 1
      objectReference: {fileID: 0}
    - target: {fileID: 6774632706815460487, guid: 44fe3f75b6cd36e4e8467e69d9e4677d,
        type: 3}
      propertyPath: m_RootOrder
      value: 0
      objectReference: {fileID: 0}
    - target: {fileID: 6774632706815460487, guid: 44fe3f75b6cd36e4e8467e69d9e4677d,
        type: 3}
      propertyPath: m_LocalEulerAnglesHint.x
      value: 0
      objectReference: {fileID: 0}
    - target: {fileID: 6774632706815460487, guid: 44fe3f75b6cd36e4e8467e69d9e4677d,
        type: 3}
      propertyPath: m_LocalEulerAnglesHint.y
      value: 0
      objectReference: {fileID: 0}
    - target: {fileID: 6774632706815460487, guid: 44fe3f75b6cd36e4e8467e69d9e4677d,
        type: 3}
      propertyPath: m_LocalEulerAnglesHint.z
      value: 0
      objectReference: {fileID: 0}
    - target: {fileID: 6774632706815460490, guid: 44fe3f75b6cd36e4e8467e69d9e4677d,
        type: 3}
      propertyPath: m_Name
      value: Main Camera
      objectReference: {fileID: 0}
    m_RemovedComponents: []
  m_SourcePrefab: {fileID: 100100000, guid: 44fe3f75b6cd36e4e8467e69d9e4677d, type: 3}
--- !u!1001 &2139169559
PrefabInstance:
  m_ObjectHideFlags: 0
  serializedVersion: 2
  m_Modification:
    m_TransformParent: {fileID: 0}
    m_Modifications:
    - target: {fileID: 487438334621887617, guid: 3dabb7ec417ca974e86c6b8fd61b7341,
        type: 3}
      propertyPath: m_LocalPosition.x
      value: -4.93
      objectReference: {fileID: 0}
    - target: {fileID: 487438334621887617, guid: 3dabb7ec417ca974e86c6b8fd61b7341,
        type: 3}
      propertyPath: m_LocalPosition.y
      value: -2.48
      objectReference: {fileID: 0}
    - target: {fileID: 487438334621887617, guid: 3dabb7ec417ca974e86c6b8fd61b7341,
        type: 3}
      propertyPath: m_LocalPosition.z
      value: -1
      objectReference: {fileID: 0}
    - target: {fileID: 487438334621887617, guid: 3dabb7ec417ca974e86c6b8fd61b7341,
        type: 3}
      propertyPath: m_LocalRotation.x
      value: 0
      objectReference: {fileID: 0}
    - target: {fileID: 487438334621887617, guid: 3dabb7ec417ca974e86c6b8fd61b7341,
        type: 3}
      propertyPath: m_LocalRotation.y
      value: 0
      objectReference: {fileID: 0}
    - target: {fileID: 487438334621887617, guid: 3dabb7ec417ca974e86c6b8fd61b7341,
        type: 3}
      propertyPath: m_LocalRotation.z
      value: 0
      objectReference: {fileID: 0}
    - target: {fileID: 487438334621887617, guid: 3dabb7ec417ca974e86c6b8fd61b7341,
        type: 3}
      propertyPath: m_LocalRotation.w
      value: 1
      objectReference: {fileID: 0}
    - target: {fileID: 487438334621887617, guid: 3dabb7ec417ca974e86c6b8fd61b7341,
        type: 3}
      propertyPath: m_RootOrder
      value: 9
      objectReference: {fileID: 0}
    - target: {fileID: 487438334621887617, guid: 3dabb7ec417ca974e86c6b8fd61b7341,
        type: 3}
      propertyPath: m_LocalEulerAnglesHint.x
      value: 0
      objectReference: {fileID: 0}
    - target: {fileID: 487438334621887617, guid: 3dabb7ec417ca974e86c6b8fd61b7341,
        type: 3}
      propertyPath: m_LocalEulerAnglesHint.y
      value: 0
      objectReference: {fileID: 0}
    - target: {fileID: 487438334621887617, guid: 3dabb7ec417ca974e86c6b8fd61b7341,
        type: 3}
      propertyPath: m_LocalEulerAnglesHint.z
      value: 0
      objectReference: {fileID: 0}
    - target: {fileID: 1175464863632537568, guid: 3dabb7ec417ca974e86c6b8fd61b7341,
        type: 3}
      propertyPath: m_Name
      value: mouseSleeps
      objectReference: {fileID: 0}
    m_RemovedComponents: []
  m_SourcePrefab: {fileID: 100100000, guid: 3dabb7ec417ca974e86c6b8fd61b7341, type: 3}
--- !u!1001 &2482766348090212346
PrefabInstance:
  m_ObjectHideFlags: 0
  serializedVersion: 2
  m_Modification:
    m_TransformParent: {fileID: 0}
    m_Modifications:
    - target: {fileID: 2482766346842601746, guid: 5eb052e3c873d8c4c9e87926ab92d823,
        type: 3}
      propertyPath: m_LocalPosition.x
      value: 3.3
      objectReference: {fileID: 0}
    - target: {fileID: 2482766346842601746, guid: 5eb052e3c873d8c4c9e87926ab92d823,
        type: 3}
      propertyPath: m_LocalPosition.y
      value: 1.13
      objectReference: {fileID: 0}
    - target: {fileID: 2482766346842601746, guid: 5eb052e3c873d8c4c9e87926ab92d823,
        type: 3}
      propertyPath: m_LocalPosition.z
      value: 0
      objectReference: {fileID: 0}
    - target: {fileID: 2482766346842601746, guid: 5eb052e3c873d8c4c9e87926ab92d823,
        type: 3}
      propertyPath: m_LocalRotation.x
      value: 0
      objectReference: {fileID: 0}
    - target: {fileID: 2482766346842601746, guid: 5eb052e3c873d8c4c9e87926ab92d823,
        type: 3}
      propertyPath: m_LocalRotation.y
      value: 0
      objectReference: {fileID: 0}
    - target: {fileID: 2482766346842601746, guid: 5eb052e3c873d8c4c9e87926ab92d823,
        type: 3}
      propertyPath: m_LocalRotation.z
      value: 0
      objectReference: {fileID: 0}
    - target: {fileID: 2482766346842601746, guid: 5eb052e3c873d8c4c9e87926ab92d823,
        type: 3}
      propertyPath: m_LocalRotation.w
      value: 1
      objectReference: {fileID: 0}
    - target: {fileID: 2482766346842601746, guid: 5eb052e3c873d8c4c9e87926ab92d823,
        type: 3}
      propertyPath: m_RootOrder
      value: 10
      objectReference: {fileID: 0}
    - target: {fileID: 2482766346842601746, guid: 5eb052e3c873d8c4c9e87926ab92d823,
        type: 3}
      propertyPath: m_LocalEulerAnglesHint.x
      value: 0
      objectReference: {fileID: 0}
    - target: {fileID: 2482766346842601746, guid: 5eb052e3c873d8c4c9e87926ab92d823,
        type: 3}
      propertyPath: m_LocalEulerAnglesHint.y
      value: 0
      objectReference: {fileID: 0}
    - target: {fileID: 2482766346842601746, guid: 5eb052e3c873d8c4c9e87926ab92d823,
        type: 3}
      propertyPath: m_LocalEulerAnglesHint.z
      value: 0
      objectReference: {fileID: 0}
    - target: {fileID: 2482766346842601756, guid: 5eb052e3c873d8c4c9e87926ab92d823,
        type: 3}
      propertyPath: m_Name
      value: enemy
      objectReference: {fileID: 0}
    m_RemovedComponents: []
  m_SourcePrefab: {fileID: 100100000, guid: 5eb052e3c873d8c4c9e87926ab92d823, type: 3}
